<?xml version="1.0" encoding="UTF-8" standalone="no"?>
<!-- Created with Inkscape (http://www.inkscape.org/) -->

<svg
   width="34"
   height="28.000561"
   viewBox="0 0 8.9958334 7.4084817"
   version="1.1"
   id="svg5"
   inkscape:version="1.2.2 (b0a8486, 2022-12-01)"
   sodipodi:docname="measurements_underline.svg"
   inkscape:export-filename="measurements_underline.png"
   inkscape:export-xdpi="2304"
   inkscape:export-ydpi="2304"
   xmlns:inkscape="http://www.inkscape.org/namespaces/inkscape"
   xmlns:sodipodi="http://sodipodi.sourceforge.net/DTD/sodipodi-0.dtd"
   xmlns="http://www.w3.org/2000/svg"
   xmlns:svg="http://www.w3.org/2000/svg"
   xmlns:rdf="http://www.w3.org/1999/02/22-rdf-syntax-ns#"
   xmlns:cc="http://creativecommons.org/ns#">
  <sodipodi:namedview
     id="namedview7"
     pagecolor="#949494"
     bordercolor="#000000"
     borderopacity="0.25"
     inkscape:showpageshadow="2"
     inkscape:pageopacity="1"
     inkscape:pagecheckerboard="0"
     inkscape:deskcolor="#636363"
     inkscape:document-units="px"
     showgrid="false"
     inkscape:zoom="28"
     inkscape:cx="17"
     inkscape:cy="14"
     inkscape:window-width="1715"
     inkscape:window-height="1045"
     inkscape:window-x="204"
     inkscape:window-y="0"
     inkscape:window-maximized="1"
     inkscape:current-layer="layer1">
    <inkscape:grid
       type="xygrid"
       id="grid132"
       empspacing="6"
       spacingx="0.044097222"
       spacingy="0.044098104"
       dotted="true"
       color="#000000"
       opacity="0.50196078"
       empcolor="#000000"
       empopacity="0.50196078"
       originx="0.79374999"
       originy="0.79376588" />
    <inkscape:grid
       type="xygrid"
       id="grid134"
       empspacing="2"
       color="#000000"
       opacity="0.25098039"
       empcolor="#000000"
       empopacity="0.50196078"
       spacingx="3.175"
       spacingy="3.175"
       originx="0.79374999"
       originy="0.79376588" />
  </sodipodi:namedview>
  <defs
     id="defs2" />
  <g
     inkscape:groupmode="layer"
     id="layer2"
     inkscape:label="flags"
     transform="translate(0.79374999,0.79376586)">
    <g
       id="use1405"
       inkscape:label="2dp"
       style="stroke:none"
       transform="rotate(-90,3.1750687,3.1750581)">
      <path
         style="vector-effect:non-scaling-stroke;fill:#020202;fill-opacity:1;stroke:none;stroke-width:0.264583;stroke-dasharray:none;stroke-opacity:1;-inkscape-stroke:hairline;paint-order:stroke fill markers"
         d="m 3.4e-8,-0.0440981 0.044097186,-0.0440981 1e-8,-0.13229432 h 0.44097221 v 0.13229432 l 0.0440972,0.0440981 -3e-8,-0.48507914 H 0 Z"
         id="path1411"
         sodipodi:nodetypes="ccccccccc"
         inkscape:label="flag" />
      <path
         id="path1413"
         d="m 0.13229412,-0.48508004 c -0.0277966,0.003129 -0.04392497,0.0299348 -0.04392497,0.0661458 h 0.02222086 c 0,-0.0275607 0.007178,-0.043925 0.0273885,-0.043925 0.0202112,0 0.0273885,0.0110244 0.0273885,0.0330729 0,0.0496092 -0.07699788,0.0883667 -0.07699788,0.0883667 v 0.0217041 H 0.1875879 v -0.0217041 H 0.1322941 c 0,0 0.0552938,-0.0387575 0.0552938,-0.0883667 0,-0.0330728 -0.0183739,-0.0552938 -0.0496094,-0.0552938 -9.761e-4,0 -0.00215,-5.332e-5 -0.003101,0 -9.2111e-4,5.166e-5 -0.001687,-1.0092e-4 -0.002583,1e-7 z m 0.15451253,0 v 0.0552938 c -0.0385849,0.00735 -0.0769979,0.0329008 -0.0769979,0.0604614 0,0.0330728 0.0165365,0.0496094 0.0496094,0.0496094 0.0110243,0 0.020039,-0.003445 0.0273885,-0.0144694 v 0.0144694 h 0.0222209 v -0.1100708 -0.0552938 z m 0.043925,0.0552938 v 0.16536458 h 0.0222209 v -0.0625285 c 0.0312354,-0.0128617 0.0661458,-0.0331879 0.0661458,-0.0589111 0,-0.0330728 -0.0163642,-0.043925 -0.043925,-0.043925 -0.00735,0 -0.0148714,0.003503 -0.0222209,0.0108521 v -0.0108521 z m -0.043925,0.0222209 c 0,0.0551214 -0.0108522,0.0661458 -0.0273885,0.0661458 -0.0165364,0 -0.0279053,-0.0113689 -0.0279053,-0.0279053 0,-0.0220486 0.0332453,-0.0327284 0.0552938,-0.0382405 z m 0.0837158,0 c 0.001361,-2.1649e-4 0.003101,0 0.004651,0 0.0165364,0 0.0217041,0.005168 0.0217041,0.0217041 0,0.0165364 -0.0218764,0.027733 -0.043925,0.0387573 0,-0.0449583 0.004413,-0.0583686 0.0175699,-0.0604614 z"
         style="font-size:0.264583px;font-family:'system six';-inkscape-font-specification:'system six';fill:#ffffff;stroke:none;paint-order:stroke fill markers"
         inkscape:label="text" />
    </g>
    <g
       id="g1678"
       inkscape:label="24dp"
       transform="rotate(90,1.0583299,-1.0583355)">
      <path
         style="vector-effect:non-scaling-stroke;fill:#020202;fill-opacity:1;stroke:none;stroke-width:0.264583;stroke-dasharray:none;stroke-opacity:1;-inkscape-stroke:hairline;paint-order:stroke fill markers"
         d="m 1.5876259,0.04409216 0.043971,0.04409679 v 0.13229209 h 6.2618055 l 1.252e-4,-0.13229208 0.044098,-0.0440968 -1.264e-4,0.48507561 -6.3500006,-6.72e-6 z"
         id="path1674"
         sodipodi:nodetypes="ccccccccc"
         inkscape:label="flag" />
      <path
         id="path1684"
         d="m 4.9389542,0.48506934 c 0.029476,-0.00165 0.046509,-0.028767 0.046509,-0.066146 h -0.021704 c 0,0.027561 -0.00769,0.043925 -0.027905,0.043925 -0.020211,0 -0.027389,-0.011024 -0.027389,-0.033073 0,-0.046509 0.06852,-0.083946 0.076998,-0.088367 v -0.021704 h -0.099219 v 0.021704 h 0.055294 l -5.168e-4,5.167e-4 c -0.00606,0.00442 -0.054777,0.041341 -0.054777,0.08785 0,0.033073 0.018374,0.055294 0.049609,0.055294 9.761e-4,0 0.00215,5.34e-5 0.0031,3e-7 z m -0.074414,0 v -0.099219 h -0.055294 v -0.066146 h -0.022221 v 0.066146 h -0.021704 v 0.021704 h 0.021704 v 0.077515 h 0.022221 v -0.077515 h 0.033073 v 0.077515 z m -0.1984375,0 v -0.055294 c 0.038585,-0.00735 0.076998,-0.032901 0.076998,-0.060461 0,-0.033073 -0.016536,-0.049609 -0.049609,-0.049609 -0.011024,0 -0.020039,0.00345 -0.027388,0.014469 v -0.014469 h -0.022221 v 0.1100702 0.0552938 z m -0.044442,-0.055294 v -0.1653646 h -0.021704 v 0.062528 c -0.031235,0.012862 -0.066146,0.033188 -0.066146,0.058911 0,0.033073 0.016364,0.043925 0.043925,0.043925 0.00735,0 0.014871,-0.0035 0.022221,-0.010852 v 0.010852 z m 0.044442,-0.022221 c 0,-0.055121 0.010852,-0.066146 0.027388,-0.066146 0.016536,0 0.027389,0.011369 0.027389,0.027905 0,0.022049 -0.032729,0.032729 -0.054777,0.038241 z m -0.084233,0 c -0.00136,2.165e-4 -0.00258,0 -0.00413,0 -0.016536,0 -0.022221,-0.00517 -0.022221,-0.021704 0,-0.016536 0.022394,-0.027733 0.044442,-0.038757 0,0.044958 -0.00493,0.058369 -0.018087,0.060461 z"
         inkscape:label="text"
         style="font-size:0.264583px;font-family:'system six';-inkscape-font-specification:'system six';fill:#ffffff;stroke-width:1.00012;paint-order:stroke fill markers"
         sodipodi:nodetypes="cccssccccccssccccccccccccccccccssccccccccccssccccsscssscss" />
    </g>
    <g
       id="g306"
       inkscape:label="2dp"
       style="stroke:none"
       transform="rotate(-90,7.1438197,-0.79369247)">
      <path
         style="vector-effect:non-scaling-stroke;fill:#020202;fill-opacity:1;stroke:none;stroke-width:0.264583;stroke-dasharray:none;stroke-opacity:1;-inkscape-stroke:hairline;paint-order:stroke fill markers"
         d="m 0.52917757,-0.48509135 0.0440972,0.0440981 10e-9,0.13229432 H 1.014247 v -0.13229432 l 0.044097,-0.0440981 V -1.221e-5 H 0.52917756 Z"
         id="path302"
         sodipodi:nodetypes="ccccccccc"
         inkscape:label="flag" />
      <path
         id="path304"
         d="m 0.66146121,-0.26459554 c -0.0277966,0.003129 -0.043925,0.0299348 -0.043925,0.0661458 h 0.0222209 c 0,-0.0275607 0.007178,-0.043925 0.0273885,-0.043925 0.0202112,0 0.0273885,0.0110244 0.0273885,0.0330729 0,0.0496092 -0.0769979,0.0883667 -0.0769979,0.0883667 v 0.0217041 h 0.0992188 v -0.0217041 h -0.0552938 c 0,0 0.0552938,-0.0387575 0.0552938,-0.0883667 0,-0.0330728 -0.0183739,-0.0552938 -0.0496094,-0.0552938 -9.761e-4,0 -0.00215,-5.332e-5 -0.003101,0 -9.2111e-4,5.166e-5 -0.001687,-1.0092e-4 -0.002583,1e-7 z m 0.15451256,0 v 0.0552938 c -0.038585,0.00735 -0.076998,0.0329008 -0.076998,0.0604614 0,0.0330728 0.016536,0.0496094 0.049609,0.0496094 0.011024,0 0.020039,-0.003445 0.027389,-0.0144694 v 0.0144694 h 0.022221 v -0.1100708 -0.0552938 z m 0.043925,0.0552938 v 0.16536458 h 0.022221 v -0.0625285 c 0.031235,-0.0128617 0.066146,-0.0331879 0.066146,-0.0589111 0,-0.0330728 -0.016364,-0.043925 -0.043925,-0.043925 -0.00735,0 -0.014871,0.003503 -0.022221,0.0108521 v -0.0108521 z m -0.043925,0.0222209 c 0,0.0551214 -0.010852,0.0661458 -0.027389,0.0661458 -0.016536,0 -0.027905,-0.0113689 -0.027905,-0.0279053 0,-0.0220486 0.033245,-0.0327284 0.055294,-0.0382405 z m 0.083716,0 c 0.00136,-2.1649e-4 0.0031,0 0.00465,0 0.016536,0 0.021704,0.005168 0.021704,0.0217041 0,0.0165364 -0.021876,0.027733 -0.043925,0.0387573 0,-0.0449583 0.00441,-0.0583686 0.017571,-0.0604614 z"
         style="font-size:0.264583px;font-family:'system six';-inkscape-font-specification:'system six';fill:#ffffff;stroke:none;paint-order:stroke fill markers"
         inkscape:label="text" />
    </g>
  </g>
  <g
     inkscape:label="text-background"
     inkscape:groupmode="layer"
     id="layer1"
     transform="translate(0.79374999,0.79376586)">
    <rect
       style="vector-effect:non-scaling-stroke;fill:#e3e3e3;fill-opacity:1;stroke:none;stroke-width:0.264583;stroke-dasharray:none;stroke-opacity:1;-inkscape-stroke:hairline;paint-order:stroke fill markers"
       id="rect447"
       width="7.4083333"
       height="6.8792934"
       x="0"
       y="-0.52916664"
       inkscape:label="0" />
    <path
       id="rect1400"
       style="display:inline;fill:#c8c8c8;fill-opacity:1;stroke-width:0.529167;paint-order:stroke fill markers"
       d="M -7.8256267e-8,-0.52917723 1.1497406e-8,5.2916508 H 7.4083334 l -1e-7,-5.82082803 z M 1.1497406e-8,5.8208175 V 6.3499842 H 7.4083334 V 5.8208175 Z"
       inkscape:label="1"
       sodipodi:nodetypes="cccccccccc" />
    <path
       id="path2421"
       style="display:inline;fill:#c8c8c8;fill-opacity:1;stroke-width:0.529167;paint-order:stroke fill markers"
       d="m 1.1497406e-8,5.2916508 v 0.043925 L 0.04392498,5.2916508 Z m 0.220658368502594,0 0.043925,0.043925 0.043925,-0.043925 z m 0.26458333,0 0.043925,0.043925 0.043925,-0.043925 z m 0.26458334,0 0.043925,0.043925 0.043925,-0.043925 z m 0.26458335,0 0.043925,0.043925 0.043925,-0.043925 z m 0.2645833,0 0.043925,0.043925 0.043925,-0.043925 z m 0.2645833,0 0.043925,0.043925 0.043925,-0.043925 z m 0.2645834,0 0.043925,0.043925 0.043925,-0.043925 z m 0.2645833,0 0.043925,0.043925 0.043925,-0.043925 z m 0.2645833,0 0.043925,0.043925 0.043925,-0.043925 z m 0.2645834,0 0.043925,0.043925 0.043925,-0.043925 z m 0.2645833,0 0.043925,0.043925 0.043925,-0.043925 z m 0.2645833,0 0.043925,0.043925 0.043925,-0.043925 z m 0.2645834,0 0.043925,0.043925 0.043925,-0.043925 z m 0.2645833,0 0.043925,0.043925 0.043925,-0.043925 z m 0.2645834,0 0.043925,0.043925 0.043925,-0.043925 z m 0.2645833,0 0.043925,0.043925 0.043925,-0.043925 z m 0.2645833,0 0.043925,0.043925 0.043925,-0.043925 z m 0.2645834,0 0.043925,0.043925 0.043925,-0.043925 z m 0.2645833,0 0.043925,0.043925 0.043925,-0.043925 z m 0.2645833,0 0.043925,0.043925 0.043925,-0.043925 z m 0.2645834,0 0.043925,0.043925 0.043925,-0.043925 z m 0.2645833,0 0.043925,0.043925 0.043925,-0.043925 z m 0.2645833,0 0.043925,0.043925 0.043925,-0.043925 z m 0.2645834,0 L 6.35,5.3355758 6.393925,5.2916508 Z m 0.2645833,0 0.043925,0.043925 0.043925,-0.043925 z m 0.2645833,0 0.043925,0.043925 0.043925,-0.043925 z m 0.2645834,0 0.043925,0.043925 0.043925,-0.043925 z m 0.2645833,0 0.043925,0.043925 V 5.2916508 Z M 1.1497406e-8,5.5123092 v 0.08785 L 0.04392498,5.5562342 Z m 0.264583338502594,0 -0.043925,0.043925 0.043925,0.043925 0.043925,-0.043925 z m 0.26458333,0 -0.043925,0.043925 0.043925,0.043925 0.043925,-0.043925 z m 0.26458333,0 -0.043925,0.043925 0.043925,0.043925 0.043925,-0.043925 z m 0.26458329,0 -0.043925,0.043925 0.043925,0.043925 0.043925,-0.043925 z m 0.2645834,0 -0.043925,0.043925 0.043925,0.043925 0.043925,-0.043925 z m 0.2645833,0 -0.043925,0.043925 0.043925,0.043925 0.043925,-0.043925 z m 0.2645833,0 -0.043925,0.043925 0.043925,0.043925 0.043925,-0.043925 z m 0.2645834,0 -0.043925,0.043925 0.043925,0.043925 0.043925,-0.043925 z m 0.2645833,0 -0.043925,0.043925 0.043925,0.043925 0.043925,-0.043925 z m 0.2645833,0 -0.043925,0.043925 0.043925,0.043925 0.043925,-0.043925 z m 0.2645834,0 -0.043925,0.043925 0.043925,0.043925 0.043925,-0.043925 z m 0.2645833,0 -0.043925,0.043925 0.043925,0.043925 0.043925,-0.043925 z m 0.2645834,0 -0.043925,0.043925 0.043925,0.043925 0.043925,-0.043925 z m 0.2645833,0 -0.043925,0.043925 0.043925,0.043925 0.043925,-0.043925 z m 0.2645833,0 -0.043925,0.043925 0.043925,0.043925 0.043925,-0.043925 z m 0.2645834,0 -0.043925,0.043925 0.043925,0.043925 0.043925,-0.043925 z m 0.2645833,0 -0.043925,0.043925 0.043925,0.043925 0.043925,-0.043925 z m 0.2645833,0 -0.043925,0.043925 0.043925,0.043925 0.043925,-0.043925 z m 0.2645834,0 -0.043925,0.043925 0.043925,0.043925 0.043925,-0.043925 z m 0.2645833,0 -0.043925,0.043925 0.043925,0.043925 0.043925,-0.043925 z m 0.2645833,0 -0.043925,0.043925 0.043925,0.043925 0.043925,-0.043925 z m 0.2645834,0 -0.043925,0.043925 0.043925,0.043925 0.043925,-0.043925 z m 0.2645833,0 -0.043925,0.043925 0.043925,0.043925 0.043925,-0.043925 z m 0.2645833,0 L 6.306075,5.5562342 6.35,5.6001591 6.393925,5.5562342 Z m 0.2645834,0 -0.043925,0.043925 0.043925,0.043925 0.043925,-0.043925 z m 0.2645833,0 -0.043925,0.043925 0.043925,0.043925 0.043925,-0.043925 z m 0.2645833,0 -0.043925,0.043925 0.043925,0.043925 0.043925,-0.043925 z m 0.2645834,0 -0.043925,0.043925 0.043925,0.043925 z M 1.1497406e-8,5.7768925 v 0.043925 H 0.04392498 Z m 0.264583338502594,0 -0.043925,0.043925 h 0.0878499 z m 0.26458333,0 -0.043925,0.043925 h 0.0878499 z m 0.26458333,0 -0.043925,0.043925 h 0.0878499 z m 0.26458329,0 -0.043925,0.043925 h 0.08785 z m 0.2645834,0 -0.043925,0.043925 h 0.08785 z m 0.2645833,0 -0.043925,0.043925 h 0.08785 z m 0.2645833,0 -0.043925,0.043925 h 0.08785 z m 0.2645834,0 -0.043925,0.043925 h 0.08785 z m 0.2645833,0 -0.043925,0.043925 h 0.08785 z m 0.2645833,0 -0.043925,0.043925 h 0.08785 z m 0.2645834,0 -0.043925,0.043925 h 0.08785 z m 0.2645833,0 -0.043925,0.043925 h 0.08785 z m 0.2645834,0 -0.043925,0.043925 h 0.08785 z m 0.2645833,0 -0.043925,0.043925 h 0.08785 z m 0.2645833,0 -0.043925,0.043925 h 0.08785 z m 0.2645834,0 -0.043925,0.043925 h 0.08785 z m 0.2645833,0 -0.043925,0.043925 h 0.08785 z m 0.2645833,0 -0.043925,0.043925 h 0.08785 z m 0.2645834,0 -0.043925,0.043925 h 0.08785 z m 0.2645833,0 -0.043925,0.043925 h 0.08785 z m 0.2645833,0 -0.043925,0.043925 h 0.08785 z m 0.2645834,0 -0.043925,0.043925 h 0.08785 z m 0.2645833,0 -0.043925,0.043925 h 0.08785 z m 0.2645833,0 -0.043925,0.043925 h 0.08785 z m 0.2645834,0 -0.043925,0.043925 h 0.08785 z m 0.2645833,0 -0.043925,0.043925 h 0.08785 z m 0.2645833,0 -0.043925,0.043925 h 0.08785 z m 0.2645834,0 -0.043925,0.043925 h 0.043925 z"
       inkscape:label="grid0"
       sodipodi:nodetypes="ccccccccccccccccccccccccccccccccccccccccccccccccccccccccccccccccccccccccccccccccccccccccccccccccccccccccccccccccccccccccccccccccccccccccccccccccccccccccccccccccccccccccccccccccccccccccccccccccccccccccccccccccccccccccccccccccccccccccccccccccccccccccccccccccccccccccccccccccccccccccccccccccccccccccccccccccccccccccccccccccccccccccccccccccccccccccccccccccccccccccccccccccccccccc" />
    <path
       id="path2672"
       style="display:inline;fill:#aeaeae;fill-opacity:1;stroke-width:0.529167;paint-order:stroke fill markers"
       inkscape:label="grid1"
       d="M 1.2876083e-08 -0.52918253 L 1.2876083e-08 -0.48525756 L 0.04392498 -0.52918253 L 1.2876083e-08 -0.52918253 z M 0.22065838 -0.52918253 L 0.26458335 -0.48525756 L 0.30850831 -0.52918253 L 0.22065838 -0.52918253 z M 0.48524171 -0.52918253 L 0.52916668 -0.48525756 L 0.57309165 -0.52918253 L 0.48524171 -0.52918253 z M 0.74982505 -0.52918253 L 0.79375002 -0.48525756 L 0.83767498 -0.52918253 L 0.74982505 -0.52918253 z M 1.0144084 -0.52918253 L 1.0583334 -0.48525756 L 1.1022583 -0.52918253 L 1.0144084 -0.52918253 z M 1.2789917 -0.52918253 L 1.3229167 -0.48525756 L 1.3668417 -0.52918253 L 1.2789917 -0.52918253 z M 1.5435751 -0.52918253 L 1.5875 -0.48525756 L 1.631425 -0.52918253 L 1.5435751 -0.52918253 z M 1.8081584 -0.52918253 L 1.8520834 -0.48525756 L 1.8960083 -0.52918253 L 1.8081584 -0.52918253 z M 2.0727417 -0.52918253 L 2.1166667 -0.48525756 L 2.1605917 -0.52918253 L 2.0727417 -0.52918253 z M 2.3373251 -0.52918253 L 2.38125 -0.48525756 L 2.425175 -0.52918253 L 2.3373251 -0.52918253 z M 2.6019084 -0.52918253 L 2.6458334 -0.48525756 L 2.6897583 -0.52918253 L 2.6019084 -0.52918253 z M 2.8664917 -0.52918253 L 2.9104167 -0.48525756 L 2.9543417 -0.52918253 L 2.8664917 -0.52918253 z M 3.1310751 -0.52918253 L 3.175 -0.48525756 L 3.218925 -0.52918253 L 3.1310751 -0.52918253 z M 3.3956584 -0.52918253 L 3.4395834 -0.48525756 L 3.4835083 -0.52918253 L 3.3956584 -0.52918253 z M 3.6602417 -0.52918253 L 3.7041667 -0.48525756 L 3.7480917 -0.52918253 L 3.6602417 -0.52918253 z M 3.9248251 -0.52918253 L 3.96875 -0.48525756 L 4.012675 -0.52918253 L 3.9248251 -0.52918253 z M 4.1894084 -0.52918253 L 4.2333334 -0.48525756 L 4.2772583 -0.52918253 L 4.1894084 -0.52918253 z M 4.4539917 -0.52918253 L 4.4979167 -0.48525756 L 4.5418417 -0.52918253 L 4.4539917 -0.52918253 z M 4.7185751 -0.52918253 L 4.7625 -0.48525756 L 4.806425 -0.52918253 L 4.7185751 -0.52918253 z M 4.9831584 -0.52918253 L 5.0270834 -0.48525756 L 5.0710083 -0.52918253 L 4.9831584 -0.52918253 z M 5.2477417 -0.52918253 L 5.2916667 -0.48525756 L 5.3355917 -0.52918253 L 5.2477417 -0.52918253 z M 5.5123251 -0.52918253 L 5.55625 -0.48525756 L 5.600175 -0.52918253 L 5.5123251 -0.52918253 z M 5.7769084 -0.52918253 L 5.8208334 -0.48525756 L 5.8647583 -0.52918253 L 5.7769084 -0.52918253 z M 6.0414917 -0.52918253 L 6.0854167 -0.48525756 L 6.1293417 -0.52918253 L 6.0414917 -0.52918253 z M 6.3060751 -0.52918253 L 6.35 -0.48525756 L 6.393925 -0.52918253 L 6.3060751 -0.52918253 z M 6.5706584 -0.52918253 L 6.6145834 -0.48525756 L 6.6585083 -0.52918253 L 6.5706584 -0.52918253 z M 6.8352417 -0.52918253 L 6.8791667 -0.48525756 L 6.9230917 -0.52918253 L 6.8352417 -0.52918253 z M 7.0998251 -0.52918253 L 7.14375 -0.48525756 L 7.187675 -0.52918253 L 7.0998251 -0.52918253 z M 7.3644084 -0.52918253 L 7.4083334 -0.48525756 L 7.4083334 -0.52918253 L 7.3644084 -0.52918253 z M 1.2876083e-08 -0.30852416 L 1.2876083e-08 -0.22067422 L 0.04392498 -0.26459919 L 1.2876083e-08 -0.30852416 z M 0.26458335 -0.30852416 L 0.22065838 -0.26459919 L 0.26458335 -0.22067422 L 0.30850831 -0.26459919 L 0.26458335 -0.30852416 z M 0.52916668 -0.30852416 L 0.48524171 -0.26459919 L 0.52916668 -0.22067422 L 0.57309165 -0.26459919 L 0.52916668 -0.30852416 z M 0.79375002 -0.30852416 L 0.74982505 -0.26459919 L 0.79375002 -0.22067422 L 0.83767498 -0.26459919 L 0.79375002 -0.30852416 z M 1.0583334 -0.30852416 L 1.0144084 -0.26459919 L 1.0583334 -0.22067422 L 1.1022583 -0.26459919 L 1.0583334 -0.30852416 z M 1.3229167 -0.30852416 L 1.2789917 -0.26459919 L 1.3229167 -0.22067422 L 1.3668417 -0.26459919 L 1.3229167 -0.30852416 z M 1.5875 -0.30852416 L 1.5435751 -0.26459919 L 1.5875 -0.22067422 L 1.631425 -0.26459919 L 1.5875 -0.30852416 z M 1.8520834 -0.30852416 L 1.8081584 -0.26459919 L 1.8520834 -0.22067422 L 1.8960083 -0.26459919 L 1.8520834 -0.30852416 z M 2.1166667 -0.30852416 L 2.0727417 -0.26459919 L 2.1166667 -0.22067422 L 2.1605917 -0.26459919 L 2.1166667 -0.30852416 z M 2.38125 -0.30852416 L 2.3373251 -0.26459919 L 2.38125 -0.22067422 L 2.425175 -0.26459919 L 2.38125 -0.30852416 z M 2.6458334 -0.30852416 L 2.6019084 -0.26459919 L 2.6458334 -0.22067422 L 2.6897583 -0.26459919 L 2.6458334 -0.30852416 z M 2.9104167 -0.30852416 L 2.8664917 -0.26459919 L 2.9104167 -0.22067422 L 2.9543417 -0.26459919 L 2.9104167 -0.30852416 z M 3.175 -0.30852416 L 3.1310751 -0.26459919 L 3.175 -0.22067422 L 3.218925 -0.26459919 L 3.175 -0.30852416 z M 3.4395834 -0.30852416 L 3.3956584 -0.26459919 L 3.4395834 -0.22067422 L 3.4835083 -0.26459919 L 3.4395834 -0.30852416 z M 3.7041667 -0.30852416 L 3.6602417 -0.26459919 L 3.7041667 -0.22067422 L 3.7480917 -0.26459919 L 3.7041667 -0.30852416 z M 3.96875 -0.30852416 L 3.9248251 -0.26459919 L 3.96875 -0.22067422 L 4.012675 -0.26459919 L 3.96875 -0.30852416 z M 4.2333334 -0.30852416 L 4.1894084 -0.26459919 L 4.2333334 -0.22067422 L 4.2772583 -0.26459919 L 4.2333334 -0.30852416 z M 4.4979167 -0.30852416 L 4.4539917 -0.26459919 L 4.4979167 -0.22067422 L 4.5418417 -0.26459919 L 4.4979167 -0.30852416 z M 4.7625 -0.30852416 L 4.7185751 -0.26459919 L 4.7625 -0.22067422 L 4.806425 -0.26459919 L 4.7625 -0.30852416 z M 5.0270834 -0.30852416 L 4.9831584 -0.26459919 L 5.0270834 -0.22067422 L 5.0710083 -0.26459919 L 5.0270834 -0.30852416 z M 5.2916667 -0.30852416 L 5.2477417 -0.26459919 L 5.2916667 -0.22067422 L 5.3355917 -0.26459919 L 5.2916667 -0.30852416 z M 5.55625 -0.30852416 L 5.5123251 -0.26459919 L 5.55625 -0.22067422 L 5.600175 -0.26459919 L 5.55625 -0.30852416 z M 5.8208334 -0.30852416 L 5.7769084 -0.26459919 L 5.8208334 -0.22067422 L 5.8647583 -0.26459919 L 5.8208334 -0.30852416 z M 6.0854167 -0.30852416 L 6.0414917 -0.26459919 L 6.0854167 -0.22067422 L 6.1293417 -0.26459919 L 6.0854167 -0.30852416 z M 6.35 -0.30852416 L 6.3060751 -0.26459919 L 6.35 -0.22067422 L 6.393925 -0.26459919 L 6.35 -0.30852416 z M 6.6145834 -0.30852416 L 6.5706584 -0.26459919 L 6.6145834 -0.22067422 L 6.6585083 -0.26459919 L 6.6145834 -0.30852416 z M 6.8791667 -0.30852416 L 6.8352417 -0.26459919 L 6.8791667 -0.22067422 L 6.9230917 -0.26459919 L 6.8791667 -0.30852416 z M 7.14375 -0.30852416 L 7.0998251 -0.26459919 L 7.14375 -0.22067422 L 7.187675 -0.26459919 L 7.14375 -0.30852416 z M 7.4083334 -0.30852416 L 7.3644084 -0.26459919 L 7.4083334 -0.22067422 L 7.4083334 -0.30852416 z M 1.2876083e-08 -0.043940825 L 1.2876083e-08 0.04390911 L 0.04392498 -1.5857124e-05 L 1.2876083e-08 -0.043940825 z M 0.26458335 -0.043940825 L 0.22065838 -1.5857124e-05 L 0.30850831 -1.5857124e-05 L 0.26458335 -0.043940825 z M 0.52916668 -0.043940825 L 0.48524171 -1.5857124e-05 L 0.52916668 0.04390911 L 0.57309165 -1.5857124e-05 L 0.52916668 -0.043940825 z M 0.79375002 -0.043940825 L 0.74982505 -1.5857124e-05 L 0.79375002 0.04390911 L 0.83767498 -1.5857124e-05 L 0.79375002 -0.043940825 z M 1.0583334 -0.043940825 L 1.0144084 -1.5857124e-05 L 1.0583334 0.04390911 L 1.1022583 -1.5857124e-05 L 1.0583334 -0.043940825 z M 1.3229167 -0.043940825 L 1.2789917 -1.5857124e-05 L 1.3229167 0.04390911 L 1.3668417 -1.5857124e-05 L 1.3229167 -0.043940825 z M 1.5875 -0.043940825 L 1.5435751 -1.5857124e-05 L 1.5875 0.04390911 L 1.631425 -1.5857124e-05 L 1.5875 -0.043940825 z M 1.8520834 -0.043940825 L 1.8081584 -1.5857124e-05 L 1.8520834 0.04390911 L 1.8960083 -1.5857124e-05 L 1.8520834 -0.043940825 z M 2.1166667 -0.043940825 L 2.0727417 -1.5857124e-05 L 2.1166667 0.04390911 L 2.1605917 -1.5857124e-05 L 2.1166667 -0.043940825 z M 2.38125 -0.043940825 L 2.3373251 -1.5857124e-05 L 2.38125 0.04390911 L 2.425175 -1.5857124e-05 L 2.38125 -0.043940825 z M 2.6458334 -0.043940825 L 2.6019084 -1.5857124e-05 L 2.6458334 0.04390911 L 2.6897583 -1.5857124e-05 L 2.6458334 -0.043940825 z M 2.9104167 -0.043940825 L 2.8664917 -1.5857124e-05 L 2.9104167 0.04390911 L 2.9543417 -1.5857124e-05 L 2.9104167 -0.043940825 z M 3.175 -0.043940825 L 3.1310751 -1.5857124e-05 L 3.175 0.04390911 L 3.218925 -1.5857124e-05 L 3.175 -0.043940825 z M 3.4395834 -0.043940825 L 3.3956584 -1.5857124e-05 L 3.4395834 0.04390911 L 3.4835083 -1.5857124e-05 L 3.4395834 -0.043940825 z M 3.7041667 -0.043940825 L 3.6602417 -1.5857124e-05 L 3.7041667 0.04390911 L 3.7480917 -1.5857124e-05 L 3.7041667 -0.043940825 z M 3.96875 -0.043940825 L 3.9248251 -1.5857124e-05 L 3.96875 0.04390911 L 4.012675 -1.5857124e-05 L 3.96875 -0.043940825 z M 4.2333334 -0.043940825 L 4.1894084 -1.5857124e-05 L 4.2333334 0.04390911 L 4.2772583 -1.5857124e-05 L 4.2333334 -0.043940825 z M 4.4979167 -0.043940825 L 4.4539917 -1.5857124e-05 L 4.4979167 0.04390911 L 4.5418417 -1.5857124e-05 L 4.4979167 -0.043940825 z M 4.7625 -0.043940825 L 4.7185751 -1.5857124e-05 L 4.7625 0.04390911 L 4.806425 -1.5857124e-05 L 4.7625 -0.043940825 z M 5.0270834 -0.043940825 L 4.9831584 -1.5857124e-05 L 5.0270834 0.04390911 L 5.0710083 -1.5857124e-05 L 5.0270834 -0.043940825 z M 5.2916667 -0.043940825 L 5.2477417 -1.5857124e-05 L 5.2916667 0.04390911 L 5.3355917 -1.5857124e-05 L 5.2916667 -0.043940825 z M 5.55625 -0.043940825 L 5.5123251 -1.5857124e-05 L 5.55625 0.04390911 L 5.600175 -1.5857124e-05 L 5.55625 -0.043940825 z M 5.8208334 -0.043940825 L 5.7769084 -1.5857124e-05 L 5.8208334 0.04390911 L 5.8647583 -1.5857124e-05 L 5.8208334 -0.043940825 z M 6.0854167 -0.043940825 L 6.0414917 -1.5857124e-05 L 6.0854167 0.04390911 L 6.1293417 -1.5857124e-05 L 6.0854167 -0.043940825 z M 6.35 -0.043940825 L 6.3060751 -1.5857124e-05 L 6.35 0.04390911 L 6.393925 -1.5857124e-05 L 6.35 -0.043940825 z M 6.6145834 -0.043940825 L 6.5706584 -1.5857124e-05 L 6.6145834 0.04390911 L 6.6585083 -1.5857124e-05 L 6.6145834 -0.043940825 z M 6.8791667 -0.043940825 L 6.8352417 -1.5857124e-05 L 6.8791667 0.04390911 L 6.9230917 -1.5857124e-05 L 6.8791667 -0.043940825 z M 7.14375 -0.043940825 L 7.0998251 -1.5857124e-05 L 7.14375 0.04390911 L 7.187675 -1.5857124e-05 L 7.14375 -0.043940825 z M 7.4083334 -0.043940825 L 7.3644084 -1.5857124e-05 L 7.4083334 0.04390911 L 7.4083334 -0.043940825 z M 0.52916668 0.22064251 L 0.52916668 0.30849244 L 0.57309165 0.26456748 L 0.52916668 0.22064251 z M 0.79375002 0.22064251 L 0.74982505 0.26456748 L 0.79375002 0.30849244 L 0.83767498 0.26456748 L 0.79375002 0.22064251 z M 1.0583334 0.22064251 L 1.0144084 0.26456748 L 1.0583334 0.30849244 L 1.1022583 0.26456748 L 1.0583334 0.22064251 z M 1.3229167 0.22064251 L 1.2789917 0.26456748 L 1.3229167 0.30849244 L 1.3668417 0.26456748 L 1.3229167 0.22064251 z M 1.5875 0.22064251 L 1.5435751 0.26456748 L 1.5875 0.30849244 L 1.631425 0.26456748 L 1.5875 0.22064251 z M 1.8520834 0.22064251 L 1.8081584 0.26456748 L 1.8520834 0.30849244 L 1.8960083 0.26456748 L 1.8520834 0.22064251 z M 2.1166667 0.22064251 L 2.0727417 0.26456748 L 2.1166667 0.30849244 L 2.1605917 0.26456748 L 2.1166667 0.22064251 z M 2.38125 0.22064251 L 2.3373251 0.26456748 L 2.38125 0.30849244 L 2.425175 0.26456748 L 2.38125 0.22064251 z M 2.6458334 0.22064251 L 2.6019084 0.26456748 L 2.6458334 0.30849244 L 2.6897583 0.26456748 L 2.6458334 0.22064251 z M 2.9104167 0.22064251 L 2.8664917 0.26456748 L 2.9104167 0.30849244 L 2.9543417 0.26456748 L 2.9104167 0.22064251 z M 3.175 0.22064251 L 3.1310751 0.26456748 L 3.175 0.30849244 L 3.218925 0.26456748 L 3.175 0.22064251 z M 3.4395834 0.22064251 L 3.3956584 0.26456748 L 3.4395834 0.30849244 L 3.4835083 0.26456748 L 3.4395834 0.22064251 z M 3.7041667 0.22064251 L 3.6602417 0.26456748 L 3.7041667 0.30849244 L 3.7480917 0.26456748 L 3.7041667 0.22064251 z M 3.96875 0.22064251 L 3.9248251 0.26456748 L 3.96875 0.30849244 L 4.012675 0.26456748 L 3.96875 0.22064251 z M 4.2333334 0.22064251 L 4.1894084 0.26456748 L 4.2333334 0.30849244 L 4.2772583 0.26456748 L 4.2333334 0.22064251 z M 4.4979167 0.22064251 L 4.4539917 0.26456748 L 4.4979167 0.30849244 L 4.5418417 0.26456748 L 4.4979167 0.22064251 z M 4.7625 0.22064251 L 4.7185751 0.26456748 L 4.7625 0.30849244 L 4.806425 0.26456748 L 4.7625 0.22064251 z M 5.0270834 0.22064251 L 4.9831584 0.26456748 L 5.0270834 0.30849244 L 5.0710083 0.26456748 L 5.0270834 0.22064251 z M 5.2916667 0.22064251 L 5.2477417 0.26456748 L 5.2916667 0.30849244 L 5.3355917 0.26456748 L 5.2916667 0.22064251 z M 5.55625 0.22064251 L 5.5123251 0.26456748 L 5.55625 0.30849244 L 5.600175 0.26456748 L 5.55625 0.22064251 z M 5.8208334 0.22064251 L 5.7769084 0.26456748 L 5.8208334 0.30849244 L 5.8647583 0.26456748 L 5.8208334 0.22064251 z M 6.0854167 0.22064251 L 6.0414917 0.26456748 L 6.0854167 0.30849244 L 6.1293417 0.26456748 L 6.0854167 0.22064251 z M 6.35 0.22064251 L 6.3060751 0.26456748 L 6.35 0.30849244 L 6.393925 0.26456748 L 6.35 0.22064251 z M 6.6145834 0.22064251 L 6.5706584 0.26456748 L 6.6145834 0.30849244 L 6.6585083 0.26456748 L 6.6145834 0.22064251 z M 6.8791667 0.22064251 L 6.8352417 0.26456748 L 6.8791667 0.30849244 L 6.9230917 0.26456748 L 6.8791667 0.22064251 z M 7.14375 0.22064251 L 7.0998251 0.26456748 L 7.14375 0.30849244 L 7.187675 0.26456748 L 7.14375 0.22064251 z M 7.4083334 0.22064251 L 7.3644084 0.26456748 L 7.4083334 0.30849244 L 7.4083334 0.22064251 z M 0.52916668 0.48522584 L 0.52916668 0.57307578 L 0.57309165 0.52915081 L 0.52916668 0.48522584 z M 0.79375002 0.48522584 L 0.74982505 0.52915081 L 0.79375002 0.57307578 L 0.83767498 0.52915081 L 0.79375002 0.48522584 z M 1.0583334 0.48522584 L 1.0144084 0.52915081 L 1.0583334 0.57307578 L 1.1022583 0.52915081 L 1.0583334 0.48522584 z M 1.3229167 0.48522584 L 1.2789917 0.52915081 L 1.3229167 0.57307578 L 1.3668417 0.52915081 L 1.3229167 0.48522584 z M 1.5875 0.48522584 L 1.5435751 0.52915081 L 1.5875 0.57307578 L 1.631425 0.52915081 L 1.5875 0.48522584 z M 1.8520834 0.48522584 L 1.8081584 0.52915081 L 1.8520834 0.57307578 L 1.8960083 0.52915081 L 1.8520834 0.48522584 z M 2.1166667 0.48522584 L 2.0727417 0.52915081 L 2.1166667 0.57307578 L 2.1605917 0.52915081 L 2.1166667 0.48522584 z M 2.38125 0.48522584 L 2.3373251 0.52915081 L 2.38125 0.57307578 L 2.425175 0.52915081 L 2.38125 0.48522584 z M 2.6458334 0.48522584 L 2.6019084 0.52915081 L 2.6458334 0.57307578 L 2.6897583 0.52915081 L 2.6458334 0.48522584 z M 2.9104167 0.48522584 L 2.8664917 0.52915081 L 2.9104167 0.57307578 L 2.9543417 0.52915081 L 2.9104167 0.48522584 z M 3.175 0.48522584 L 3.1310751 0.52915081 L 3.175 0.57307578 L 3.218925 0.52915081 L 3.175 0.48522584 z M 3.4395834 0.48522584 L 3.3956584 0.52915081 L 3.4395834 0.57307578 L 3.4835083 0.52915081 L 3.4395834 0.48522584 z M 3.7041667 0.48522584 L 3.6602417 0.52915081 L 3.7041667 0.57307578 L 3.7480917 0.52915081 L 3.7041667 0.48522584 z M 3.96875 0.48522584 L 3.9248251 0.52915081 L 3.96875 0.57307578 L 4.012675 0.52915081 L 3.96875 0.48522584 z M 4.2333334 0.48522584 L 4.1894084 0.52915081 L 4.2333334 0.57307578 L 4.2772583 0.52915081 L 4.2333334 0.48522584 z M 4.4979167 0.48522584 L 4.4539917 0.52915081 L 4.4979167 0.57307578 L 4.5418417 0.52915081 L 4.4979167 0.48522584 z M 4.7625 0.48522584 L 4.7185751 0.52915081 L 4.7625 0.57307578 L 4.806425 0.52915081 L 4.7625 0.48522584 z M 5.0270834 0.48522584 L 4.9831584 0.52915081 L 5.0270834 0.57307578 L 5.0710083 0.52915081 L 5.0270834 0.48522584 z M 5.2916667 0.48522584 L 5.2477417 0.52915081 L 5.2916667 0.57307578 L 5.3355917 0.52915081 L 5.2916667 0.48522584 z M 5.55625 0.48522584 L 5.5123251 0.52915081 L 5.55625 0.57307578 L 5.600175 0.52915081 L 5.55625 0.48522584 z M 5.8208334 0.48522584 L 5.7769084 0.52915081 L 5.8208334 0.57307578 L 5.8647583 0.52915081 L 5.8208334 0.48522584 z M 6.0854167 0.48522584 L 6.0414917 0.52915081 L 6.0854167 0.57307578 L 6.1293417 0.52915081 L 6.0854167 0.48522584 z M 6.35 0.48522584 L 6.3060751 0.52915081 L 6.35 0.57307578 L 6.393925 0.52915081 L 6.35 0.48522584 z M 6.6145834 0.48522584 L 6.5706584 0.52915081 L 6.6145834 0.57307578 L 6.6585083 0.52915081 L 6.6145834 0.48522584 z M 6.8791667 0.48522584 L 6.8352417 0.52915081 L 6.8791667 0.57307578 L 6.9230917 0.52915081 L 6.8791667 0.48522584 z M 7.14375 0.48522584 L 7.0998251 0.52915081 L 7.14375 0.57307578 L 7.187675 0.52915081 L 7.14375 0.48522584 z M 7.4083334 0.48522584 L 7.3644084 0.52915081 L 7.4083334 0.57307578 L 7.4083334 0.48522584 z M 0.52916668 0.74980918 L 0.52916668 0.83765911 L 0.57309165 0.79373415 L 0.52916668 0.74980918 z M 0.79375002 0.74980918 L 0.74982505 0.79373415 L 0.79375002 0.83765911 L 0.83767498 0.79373415 L 0.79375002 0.74980918 z M 1.0583334 0.74980918 L 1.0144084 0.79373415 L 1.0583334 0.83765911 L 1.1022583 0.79373415 L 1.0583334 0.74980918 z M 1.3229167 0.74980918 L 1.2789917 0.79373415 L 1.3229167 0.83765911 L 1.3668417 0.79373415 L 1.3229167 0.74980918 z M 1.5875 0.74980918 L 1.5435751 0.79373415 L 1.5875 0.83765911 L 1.631425 0.79373415 L 1.5875 0.74980918 z M 1.8520834 0.74980918 L 1.8081584 0.79373415 L 1.8520834 0.83765911 L 1.8960083 0.79373415 L 1.8520834 0.74980918 z M 2.1166667 0.74980918 L 2.0727417 0.79373415 L 2.1166667 0.83765911 L 2.1605917 0.79373415 L 2.1166667 0.74980918 z M 2.38125 0.74980918 L 2.3373251 0.79373415 L 2.38125 0.83765911 L 2.425175 0.79373415 L 2.38125 0.74980918 z M 2.6458334 0.74980918 L 2.6019084 0.79373415 L 2.6458334 0.83765911 L 2.6897583 0.79373415 L 2.6458334 0.74980918 z M 2.9104167 0.74980918 L 2.8664917 0.79373415 L 2.9104167 0.83765911 L 2.9543417 0.79373415 L 2.9104167 0.74980918 z M 3.175 0.74980918 L 3.1310751 0.79373415 L 3.175 0.83765911 L 3.218925 0.79373415 L 3.175 0.74980918 z M 3.4395834 0.74980918 L 3.3956584 0.79373415 L 3.4395834 0.83765911 L 3.4835083 0.79373415 L 3.4395834 0.74980918 z M 3.7041667 0.74980918 L 3.6602417 0.79373415 L 3.7041667 0.83765911 L 3.7480917 0.79373415 L 3.7041667 0.74980918 z M 3.96875 0.74980918 L 3.9248251 0.79373415 L 3.96875 0.83765911 L 4.012675 0.79373415 L 3.96875 0.74980918 z M 4.2333334 0.74980918 L 4.1894084 0.79373415 L 4.2333334 0.83765911 L 4.2772583 0.79373415 L 4.2333334 0.74980918 z M 4.4979167 0.74980918 L 4.4539917 0.79373415 L 4.4979167 0.83765911 L 4.5418417 0.79373415 L 4.4979167 0.74980918 z M 4.7625 0.74980918 L 4.7185751 0.79373415 L 4.7625 0.83765911 L 4.806425 0.79373415 L 4.7625 0.74980918 z M 5.0270834 0.74980918 L 4.9831584 0.79373415 L 5.0270834 0.83765911 L 5.0710083 0.79373415 L 5.0270834 0.74980918 z M 5.2916667 0.74980918 L 5.2477417 0.79373415 L 5.2916667 0.83765911 L 5.3355917 0.79373415 L 5.2916667 0.74980918 z M 5.55625 0.74980918 L 5.5123251 0.79373415 L 5.55625 0.83765911 L 5.600175 0.79373415 L 5.55625 0.74980918 z M 5.8208334 0.74980918 L 5.7769084 0.79373415 L 5.8208334 0.83765911 L 5.8647583 0.79373415 L 5.8208334 0.74980918 z M 6.0854167 0.74980918 L 6.0414917 0.79373415 L 6.0854167 0.83765911 L 6.1293417 0.79373415 L 6.0854167 0.74980918 z M 6.35 0.74980918 L 6.3060751 0.79373415 L 6.35 0.83765911 L 6.393925 0.79373415 L 6.35 0.74980918 z M 6.6145834 0.74980918 L 6.5706584 0.79373415 L 6.6145834 0.83765911 L 6.6585083 0.79373415 L 6.6145834 0.74980918 z M 6.8791667 0.74980918 L 6.8352417 0.79373415 L 6.8791667 0.83765911 L 6.9230917 0.79373415 L 6.8791667 0.74980918 z M 7.14375 0.74980918 L 7.0998251 0.79373415 L 7.14375 0.83765911 L 7.187675 0.79373415 L 7.14375 0.74980918 z M 7.4083334 0.74980918 L 7.3644084 0.79373415 L 7.4083334 0.83765911 L 7.4083334 0.74980918 z M 0.52916668 1.0143925 L 0.52916668 1.1022424 L 0.57309165 1.0583175 L 0.52916668 1.0143925 z M 0.79375002 1.0143925 L 0.74982505 1.0583175 L 0.79375002 1.1022424 L 0.83767498 1.0583175 L 0.79375002 1.0143925 z M 1.0583334 1.0143925 L 1.0144084 1.0583175 L 1.0583334 1.1022424 L 1.1022583 1.0583175 L 1.0583334 1.0143925 z M 1.3229167 1.0143925 L 1.2789917 1.0583175 L 1.3229167 1.1022424 L 1.3668417 1.0583175 L 1.3229167 1.0143925 z M 1.5875 1.0143925 L 1.5435751 1.0583175 L 1.5875 1.1022424 L 1.631425 1.0583175 L 1.5875 1.0143925 z M 1.8520834 1.0143925 L 1.8081584 1.0583175 L 1.8520834 1.1022424 L 1.8960083 1.0583175 L 1.8520834 1.0143925 z M 2.1166667 1.0143925 L 2.0727417 1.0583175 L 2.1166667 1.1022424 L 2.1605917 1.0583175 L 2.1166667 1.0143925 z M 2.38125 1.0143925 L 2.3373251 1.0583175 L 2.38125 1.1022424 L 2.425175 1.0583175 L 2.38125 1.0143925 z M 2.6458334 1.0143925 L 2.6019084 1.0583175 L 2.6458334 1.1022424 L 2.6897583 1.0583175 L 2.6458334 1.0143925 z M 2.9104167 1.0143925 L 2.8664917 1.0583175 L 2.9104167 1.1022424 L 2.9543417 1.0583175 L 2.9104167 1.0143925 z M 3.175 1.0143925 L 3.1310751 1.0583175 L 3.175 1.1022424 L 3.218925 1.0583175 L 3.175 1.0143925 z M 3.4395834 1.0143925 L 3.3956584 1.0583175 L 3.4395834 1.1022424 L 3.4835083 1.0583175 L 3.4395834 1.0143925 z M 3.7041667 1.0143925 L 3.6602417 1.0583175 L 3.7041667 1.1022424 L 3.7480917 1.0583175 L 3.7041667 1.0143925 z M 3.96875 1.0143925 L 3.9248251 1.0583175 L 3.96875 1.1022424 L 4.012675 1.0583175 L 3.96875 1.0143925 z M 4.2333334 1.0143925 L 4.1894084 1.0583175 L 4.2333334 1.1022424 L 4.2772583 1.0583175 L 4.2333334 1.0143925 z M 4.4979167 1.0143925 L 4.4539917 1.0583175 L 4.4979167 1.1022424 L 4.5418417 1.0583175 L 4.4979167 1.0143925 z M 4.7625 1.0143925 L 4.7185751 1.0583175 L 4.7625 1.1022424 L 4.806425 1.0583175 L 4.7625 1.0143925 z M 5.0270834 1.0143925 L 4.9831584 1.0583175 L 5.0270834 1.1022424 L 5.0710083 1.0583175 L 5.0270834 1.0143925 z M 5.2916667 1.0143925 L 5.2477417 1.0583175 L 5.2916667 1.1022424 L 5.3355917 1.0583175 L 5.2916667 1.0143925 z M 5.55625 1.0143925 L 5.5123251 1.0583175 L 5.55625 1.1022424 L 5.600175 1.0583175 L 5.55625 1.0143925 z M 5.8208334 1.0143925 L 5.7769084 1.0583175 L 5.8208334 1.1022424 L 5.8647583 1.0583175 L 5.8208334 1.0143925 z M 6.0854167 1.0143925 L 6.0414917 1.0583175 L 6.0854167 1.1022424 L 6.1293417 1.0583175 L 6.0854167 1.0143925 z M 6.35 1.0143925 L 6.3060751 1.0583175 L 6.35 1.1022424 L 6.393925 1.0583175 L 6.35 1.0143925 z M 6.6145834 1.0143925 L 6.5706584 1.0583175 L 6.6145834 1.1022424 L 6.6585083 1.0583175 L 6.6145834 1.0143925 z M 6.8791667 1.0143925 L 6.8352417 1.0583175 L 6.8791667 1.1022424 L 6.9230917 1.0583175 L 6.8791667 1.0143925 z M 7.14375 1.0143925 L 7.0998251 1.0583175 L 7.14375 1.1022424 L 7.187675 1.0583175 L 7.14375 1.0143925 z M 7.4083334 1.0143925 L 7.3644084 1.0583175 L 7.4083334 1.1022424 L 7.4083334 1.0143925 z M 0.52916668 1.2789758 L 0.52916668 1.3668258 L 0.57309165 1.3229008 L 0.52916668 1.2789758 z M 0.79375002 1.2789758 L 0.74982505 1.3229008 L 0.79375002 1.3668258 L 0.83767498 1.3229008 L 0.79375002 1.2789758 z M 1.0583334 1.2789758 L 1.0144084 1.3229008 L 1.0583334 1.3668258 L 1.1022583 1.3229008 L 1.0583334 1.2789758 z M 1.3229167 1.2789758 L 1.2789917 1.3229008 L 1.3229167 1.3668258 L 1.3668417 1.3229008 L 1.3229167 1.2789758 z M 1.5875 1.2789758 L 1.5435751 1.3229008 L 1.5875 1.3668258 L 1.631425 1.3229008 L 1.5875 1.2789758 z M 1.8520834 1.2789758 L 1.8081584 1.3229008 L 1.8520834 1.3668258 L 1.8960083 1.3229008 L 1.8520834 1.2789758 z M 2.1166667 1.2789758 L 2.0727417 1.3229008 L 2.1166667 1.3668258 L 2.1605917 1.3229008 L 2.1166667 1.2789758 z M 2.38125 1.2789758 L 2.3373251 1.3229008 L 2.38125 1.3668258 L 2.425175 1.3229008 L 2.38125 1.2789758 z M 2.6458334 1.2789758 L 2.6019084 1.3229008 L 2.6458334 1.3668258 L 2.6897583 1.3229008 L 2.6458334 1.2789758 z M 2.9104167 1.2789758 L 2.8664917 1.3229008 L 2.9104167 1.3668258 L 2.9543417 1.3229008 L 2.9104167 1.2789758 z M 3.175 1.2789758 L 3.1310751 1.3229008 L 3.175 1.3668258 L 3.218925 1.3229008 L 3.175 1.2789758 z M 3.4395834 1.2789758 L 3.3956584 1.3229008 L 3.4395834 1.3668258 L 3.4835083 1.3229008 L 3.4395834 1.2789758 z M 3.7041667 1.2789758 L 3.6602417 1.3229008 L 3.7041667 1.3668258 L 3.7480917 1.3229008 L 3.7041667 1.2789758 z M 3.96875 1.2789758 L 3.9248251 1.3229008 L 3.96875 1.3668258 L 4.012675 1.3229008 L 3.96875 1.2789758 z M 4.2333334 1.2789758 L 4.1894084 1.3229008 L 4.2333334 1.3668258 L 4.2772583 1.3229008 L 4.2333334 1.2789758 z M 4.4979167 1.2789758 L 4.4539917 1.3229008 L 4.4979167 1.3668258 L 4.5418417 1.3229008 L 4.4979167 1.2789758 z M 4.7625 1.2789758 L 4.7185751 1.3229008 L 4.7625 1.3668258 L 4.806425 1.3229008 L 4.7625 1.2789758 z M 5.0270834 1.2789758 L 4.9831584 1.3229008 L 5.0270834 1.3668258 L 5.0710083 1.3229008 L 5.0270834 1.2789758 z M 5.2916667 1.2789758 L 5.2477417 1.3229008 L 5.2916667 1.3668258 L 5.3355917 1.3229008 L 5.2916667 1.2789758 z M 5.55625 1.2789758 L 5.5123251 1.3229008 L 5.55625 1.3668258 L 5.600175 1.3229008 L 5.55625 1.2789758 z M 5.8208334 1.2789758 L 5.7769084 1.3229008 L 5.8208334 1.3668258 L 5.8647583 1.3229008 L 5.8208334 1.2789758 z M 6.0854167 1.2789758 L 6.0414917 1.3229008 L 6.0854167 1.3668258 L 6.1293417 1.3229008 L 6.0854167 1.2789758 z M 6.35 1.2789758 L 6.3060751 1.3229008 L 6.35 1.3668258 L 6.393925 1.3229008 L 6.35 1.2789758 z M 6.6145834 1.2789758 L 6.5706584 1.3229008 L 6.6145834 1.3668258 L 6.6585083 1.3229008 L 6.6145834 1.2789758 z M 6.8791667 1.2789758 L 6.8352417 1.3229008 L 6.8791667 1.3668258 L 6.9230917 1.3229008 L 6.8791667 1.2789758 z M 7.14375 1.2789758 L 7.0998251 1.3229008 L 7.14375 1.3668258 L 7.187675 1.3229008 L 7.14375 1.2789758 z M 7.4083334 1.2789758 L 7.3644084 1.3229008 L 7.4083334 1.3668258 L 7.4083334 1.2789758 z M 0.52916668 1.5435592 L 0.52916668 1.6314091 L 0.57309165 1.5874841 L 0.52916668 1.5435592 z M 0.79375002 1.5435592 L 0.74982505 1.5874841 L 0.79375002 1.6314091 L 0.83767498 1.5874841 L 0.79375002 1.5435592 z M 1.0583334 1.5435592 L 1.0144084 1.5874841 L 1.0583334 1.6314091 L 1.1022583 1.5874841 L 1.0583334 1.5435592 z M 1.3229167 1.5435592 L 1.2789917 1.5874841 L 1.3229167 1.6314091 L 1.3668417 1.5874841 L 1.3229167 1.5435592 z M 2.9104167 1.5435592 L 2.8664917 1.5874841 L 2.9104167 1.6314091 L 2.9543417 1.5874841 L 2.9104167 1.5435592 z M 3.175 1.5435592 L 3.1310751 1.5874841 L 3.175 1.6314091 L 3.218925 1.5874841 L 3.175 1.5435592 z M 3.4395834 1.5435592 L 3.3956584 1.5874841 L 3.4395834 1.6314091 L 3.4835083 1.5874841 L 3.4395834 1.5435592 z M 3.7041667 1.5435592 L 3.6602417 1.5874841 L 3.7041667 1.6314091 L 3.7480917 1.5874841 L 3.7041667 1.5435592 z M 3.96875 1.5435592 L 3.9248251 1.5874841 L 3.96875 1.6314091 L 4.012675 1.5874841 L 3.96875 1.5435592 z M 4.2333334 1.5435592 L 4.1894084 1.5874841 L 4.2333334 1.6314091 L 4.2772583 1.5874841 L 4.2333334 1.5435592 z M 4.4979167 1.5435592 L 4.4539917 1.5874841 L 4.4979167 1.6314091 L 4.5418417 1.5874841 L 4.4979167 1.5435592 z M 4.7625 1.5435592 L 4.7185751 1.5874841 L 4.7625 1.6314091 L 4.806425 1.5874841 L 4.7625 1.5435592 z M 5.0270834 1.5435592 L 4.9831584 1.5874841 L 5.0270834 1.6314091 L 5.0710083 1.5874841 L 5.0270834 1.5435592 z M 5.2916667 1.5435592 L 5.2477417 1.5874841 L 5.2916667 1.6314091 L 5.3355917 1.5874841 L 5.2916667 1.5435592 z M 5.55625 1.5435592 L 5.5123251 1.5874841 L 5.55625 1.6314091 L 5.600175 1.5874841 L 5.55625 1.5435592 z M 5.8208334 1.5435592 L 5.7769084 1.5874841 L 5.8208334 1.6314091 L 5.8647583 1.5874841 L 5.8208334 1.5435592 z M 6.0854167 1.5435592 L 6.0414917 1.5874841 L 6.0854167 1.6314091 L 6.1293417 1.5874841 L 6.0854167 1.5435592 z M 6.35 1.5435592 L 6.3060751 1.5874841 L 6.35 1.6314091 L 6.393925 1.5874841 L 6.35 1.5435592 z M 6.6145834 1.5435592 L 6.5706584 1.5874841 L 6.6145834 1.6314091 L 6.6585083 1.5874841 L 6.6145834 1.5435592 z M 6.8791667 1.5435592 L 6.8352417 1.5874841 L 6.8791667 1.6314091 L 6.9230917 1.5874841 L 6.8791667 1.5435592 z M 7.14375 1.5435592 L 7.0998251 1.5874841 L 7.14375 1.6314091 L 7.187675 1.5874841 L 7.14375 1.5435592 z M 7.4083334 1.5435592 L 7.3644084 1.5874841 L 7.4083334 1.6314091 L 7.4083334 1.5435592 z M 0.52916668 1.8081425 L 0.52916668 1.8959925 L 0.57309165 1.8520675 L 0.52916668 1.8081425 z M 0.79375002 1.8081425 L 0.74982505 1.8520675 L 0.79375002 1.8959925 L 0.83767498 1.8520675 L 0.79375002 1.8081425 z M 1.0583334 1.8081425 L 1.0144084 1.8520675 L 1.0583334 1.8959925 L 1.1022583 1.8520675 L 1.0583334 1.8081425 z M 3.175 1.8081425 L 3.1310751 1.8520675 L 3.175 1.8959925 L 3.218925 1.8520675 L 3.175 1.8081425 z M 3.4395834 1.8081425 L 3.3956584 1.8520675 L 3.4395834 1.8959925 L 3.4835083 1.8520675 L 3.4395834 1.8081425 z M 3.7041667 1.8081425 L 3.6602417 1.8520675 L 3.7041667 1.8959925 L 3.7480917 1.8520675 L 3.7041667 1.8081425 z M 3.96875 1.8081425 L 3.9248251 1.8520675 L 3.96875 1.8959925 L 4.012675 1.8520675 L 3.96875 1.8081425 z M 4.2333334 1.8081425 L 4.1894084 1.8520675 L 4.2333334 1.8959925 L 4.2772583 1.8520675 L 4.2333334 1.8081425 z M 4.4979167 1.8081425 L 4.4539917 1.8520675 L 4.4979167 1.8959925 L 4.5418417 1.8520675 L 4.4979167 1.8081425 z M 4.7625 1.8081425 L 4.7185751 1.8520675 L 4.7625 1.8959925 L 4.806425 1.8520675 L 4.7625 1.8081425 z M 5.0270834 1.8081425 L 4.9831584 1.8520675 L 5.0270834 1.8959925 L 5.0710083 1.8520675 L 5.0270834 1.8081425 z M 5.2916667 1.8081425 L 5.2477417 1.8520675 L 5.2916667 1.8959925 L 5.3355917 1.8520675 L 5.2916667 1.8081425 z M 5.55625 1.8081425 L 5.5123251 1.8520675 L 5.55625 1.8959925 L 5.600175 1.8520675 L 5.55625 1.8081425 z M 5.8208334 1.8081425 L 5.7769084 1.8520675 L 5.8208334 1.8959925 L 5.8647583 1.8520675 L 5.8208334 1.8081425 z M 6.0854167 1.8081425 L 6.0414917 1.8520675 L 6.0854167 1.8959925 L 6.1293417 1.8520675 L 6.0854167 1.8081425 z M 6.35 1.8081425 L 6.3060751 1.8520675 L 6.35 1.8959925 L 6.393925 1.8520675 L 6.35 1.8081425 z M 6.6145834 1.8081425 L 6.5706584 1.8520675 L 6.6145834 1.8959925 L 6.6585083 1.8520675 L 6.6145834 1.8081425 z M 6.8791667 1.8081425 L 6.8352417 1.8520675 L 6.8791667 1.8959925 L 6.9230917 1.8520675 L 6.8791667 1.8081425 z M 7.14375 1.8081425 L 7.0998251 1.8520675 L 7.14375 1.8959925 L 7.187675 1.8520675 L 7.14375 1.8081425 z M 7.4083334 1.8081425 L 7.3644084 1.8520675 L 7.4083334 1.8959925 L 7.4083334 1.8081425 z M 1.8081584 1.8520675 L 1.8520834 1.8959925 L 1.8960083 1.8520675 L 1.8081584 1.8520675 z M 2.0727417 1.8520675 L 2.1166667 1.8959925 L 2.1605917 1.8520675 L 2.0727417 1.8520675 z M 2.3373251 1.8520675 L 2.38125 1.8959925 L 2.425175 1.8520675 L 2.3373251 1.8520675 z M 0.52916668 2.0727258 L 0.52916668 2.1605758 L 0.57309165 2.1166508 L 0.52916668 2.0727258 z M 0.79375002 2.0727258 L 0.74982505 2.1166508 L 0.79375002 2.1605758 L 0.83767498 2.1166508 L 0.79375002 2.0727258 z M 1.0583334 2.0727258 L 1.0144084 2.1166508 L 1.0583334 2.1605758 L 1.1022583 2.1166508 L 1.0583334 2.0727258 z M 1.5875 2.0727258 L 1.5875 2.1605758 L 1.631425 2.1166508 L 1.5875 2.0727258 z M 1.8520834 2.0727258 L 1.8081584 2.1166508 L 1.8520834 2.1605758 L 1.8960083 2.1166508 L 1.8520834 2.0727258 z M 2.1166667 2.0727258 L 2.0727417 2.1166508 L 2.1166667 2.1605758 L 2.1605917 2.1166508 L 2.1166667 2.0727258 z M 2.38125 2.0727258 L 2.3373251 2.1166508 L 2.38125 2.1605758 L 2.425175 2.1166508 L 2.38125 2.0727258 z M 2.6458334 2.0727258 L 2.6019084 2.1166508 L 2.6458334 2.1605758 L 2.6458334 2.0727258 z M 3.175 2.0727258 L 3.1310751 2.1166508 L 3.175 2.1605758 L 3.218925 2.1166508 L 3.175 2.0727258 z M 3.4395834 2.0727258 L 3.3956584 2.1166508 L 3.4395834 2.1605758 L 3.4835083 2.1166508 L 3.4395834 2.0727258 z M 3.7041667 2.0727258 L 3.6602417 2.1166508 L 3.7041667 2.1605758 L 3.7480917 2.1166508 L 3.7041667 2.0727258 z M 3.96875 2.0727258 L 3.9248251 2.1166508 L 3.96875 2.1605758 L 4.012675 2.1166508 L 3.96875 2.0727258 z M 4.2333334 2.0727258 L 4.1894084 2.1166508 L 4.2333334 2.1605758 L 4.2772583 2.1166508 L 4.2333334 2.0727258 z M 4.4979167 2.0727258 L 4.4539917 2.1166508 L 4.4979167 2.1605758 L 4.5418417 2.1166508 L 4.4979167 2.0727258 z M 4.7625 2.0727258 L 4.7185751 2.1166508 L 4.7625 2.1605758 L 4.806425 2.1166508 L 4.7625 2.0727258 z M 5.0270834 2.0727258 L 4.9831584 2.1166508 L 5.0270834 2.1605758 L 5.0710083 2.1166508 L 5.0270834 2.0727258 z M 5.2916667 2.0727258 L 5.2477417 2.1166508 L 5.2916667 2.1605758 L 5.3355917 2.1166508 L 5.2916667 2.0727258 z M 5.55625 2.0727258 L 5.5123251 2.1166508 L 5.55625 2.1605758 L 5.600175 2.1166508 L 5.55625 2.0727258 z M 5.8208334 2.0727258 L 5.7769084 2.1166508 L 5.8208334 2.1605758 L 5.8647583 2.1166508 L 5.8208334 2.0727258 z M 6.0854167 2.0727258 L 6.0414917 2.1166508 L 6.0854167 2.1605758 L 6.1293417 2.1166508 L 6.0854167 2.0727258 z M 6.35 2.0727258 L 6.3060751 2.1166508 L 6.35 2.1605758 L 6.393925 2.1166508 L 6.35 2.0727258 z M 6.6145834 2.0727258 L 6.5706584 2.1166508 L 6.6145834 2.1605758 L 6.6585083 2.1166508 L 6.6145834 2.0727258 z M 6.8791667 2.0727258 L 6.8352417 2.1166508 L 6.8791667 2.1605758 L 6.9230917 2.1166508 L 6.8791667 2.0727258 z M 7.14375 2.0727258 L 7.0998251 2.1166508 L 7.14375 2.1605758 L 7.187675 2.1166508 L 7.14375 2.0727258 z M 7.4083334 2.0727258 L 7.3644084 2.1166508 L 7.4083334 2.1605758 L 7.4083334 2.0727258 z M 0.52916668 2.3373092 L 0.52916668 2.4251591 L 0.57309165 2.3812342 L 0.52916668 2.3373092 z M 0.79375002 2.3373092 L 0.74982505 2.3812342 L 0.79375002 2.4251591 L 0.83767498 2.3812342 L 0.79375002 2.3373092 z M 1.0583334 2.3373092 L 1.0144084 2.3812342 L 1.0583334 2.4251591 L 1.1022583 2.3812342 L 1.0583334 2.3373092 z M 1.5875 2.3373092 L 1.5435751 2.3812342 L 1.631425 2.3812342 L 1.5875 2.3373092 z M 1.8520834 2.3373092 L 1.8081584 2.3812342 L 1.8960083 2.3812342 L 1.8520834 2.3373092 z M 2.1166667 2.3373092 L 2.0727417 2.3812342 L 2.1605917 2.3812342 L 2.1166667 2.3373092 z M 2.38125 2.3373092 L 2.3373251 2.3812342 L 2.425175 2.3812342 L 2.38125 2.3373092 z M 2.6458334 2.3373092 L 2.6019084 2.3812342 L 2.6897583 2.3812342 L 2.6458334 2.3373092 z M 3.175 2.3373092 L 3.1310751 2.3812342 L 3.175 2.4251591 L 3.218925 2.3812342 L 3.175 2.3373092 z M 3.4395834 2.3373092 L 3.3956584 2.3812342 L 3.4395834 2.4251591 L 3.4835083 2.3812342 L 3.4395834 2.3373092 z M 3.7041667 2.3373092 L 3.6602417 2.3812342 L 3.7041667 2.4251591 L 3.7480917 2.3812342 L 3.7041667 2.3373092 z M 3.96875 2.3373092 L 3.9248251 2.3812342 L 3.96875 2.4251591 L 4.012675 2.3812342 L 3.96875 2.3373092 z M 4.2333334 2.3373092 L 4.1894084 2.3812342 L 4.2333334 2.4251591 L 4.2772583 2.3812342 L 4.2333334 2.3373092 z M 4.4979167 2.3373092 L 4.4539917 2.3812342 L 4.4979167 2.4251591 L 4.5418417 2.3812342 L 4.4979167 2.3373092 z M 4.7625 2.3373092 L 4.7185751 2.3812342 L 4.7625 2.4251591 L 4.806425 2.3812342 L 4.7625 2.3373092 z M 5.0270834 2.3373092 L 4.9831584 2.3812342 L 5.0270834 2.4251591 L 5.0710083 2.3812342 L 5.0270834 2.3373092 z M 5.2916667 2.3373092 L 5.2477417 2.3812342 L 5.2916667 2.4251591 L 5.3355917 2.3812342 L 5.2916667 2.3373092 z M 5.55625 2.3373092 L 5.5123251 2.3812342 L 5.55625 2.4251591 L 5.600175 2.3812342 L 5.55625 2.3373092 z M 5.8208334 2.3373092 L 5.7769084 2.3812342 L 5.8208334 2.4251591 L 5.8647583 2.3812342 L 5.8208334 2.3373092 z M 6.0854167 2.3373092 L 6.0414917 2.3812342 L 6.0854167 2.4251591 L 6.1293417 2.3812342 L 6.0854167 2.3373092 z M 6.35 2.3373092 L 6.3060751 2.3812342 L 6.35 2.4251591 L 6.393925 2.3812342 L 6.35 2.3373092 z M 6.6145834 2.3373092 L 6.5706584 2.3812342 L 6.6145834 2.4251591 L 6.6585083 2.3812342 L 6.6145834 2.3373092 z M 6.8791667 2.3373092 L 6.8352417 2.3812342 L 6.8791667 2.4251591 L 6.9230917 2.3812342 L 6.8791667 2.3373092 z M 7.14375 2.3373092 L 7.0998251 2.3812342 L 7.14375 2.4251591 L 7.187675 2.3812342 L 7.14375 2.3373092 z M 7.4083334 2.3373092 L 7.3644084 2.3812342 L 7.4083334 2.4251591 L 7.4083334 2.3373092 z M 0.52916668 2.6018925 L 0.52916668 2.6897425 L 0.57309165 2.6458175 L 0.52916668 2.6018925 z M 0.79375002 2.6018925 L 0.74982505 2.6458175 L 0.79375002 2.6897425 L 0.83767498 2.6458175 L 0.79375002 2.6018925 z M 1.0583334 2.6018925 L 1.0144084 2.6458175 L 1.0583334 2.6897425 L 1.1022583 2.6458175 L 1.0583334 2.6018925 z M 3.175 2.6018925 L 3.1310751 2.6458175 L 3.175 2.6897425 L 3.218925 2.6458175 L 3.175 2.6018925 z M 3.4395834 2.6018925 L 3.3956584 2.6458175 L 3.4395834 2.6897425 L 3.4835083 2.6458175 L 3.4395834 2.6018925 z M 3.7041667 2.6018925 L 3.6602417 2.6458175 L 3.7041667 2.6897425 L 3.7480917 2.6458175 L 3.7041667 2.6018925 z M 3.96875 2.6018925 L 3.9248251 2.6458175 L 3.96875 2.6897425 L 4.012675 2.6458175 L 3.96875 2.6018925 z M 4.2333334 2.6018925 L 4.1894084 2.6458175 L 4.2333334 2.6897425 L 4.2772583 2.6458175 L 4.2333334 2.6018925 z M 4.4979167 2.6018925 L 4.4539917 2.6458175 L 4.4979167 2.6897425 L 4.5418417 2.6458175 L 4.4979167 2.6018925 z M 4.7625 2.6018925 L 4.7185751 2.6458175 L 4.7625 2.6897425 L 4.806425 2.6458175 L 4.7625 2.6018925 z M 5.0270834 2.6018925 L 4.9831584 2.6458175 L 5.0270834 2.6897425 L 5.0710083 2.6458175 L 5.0270834 2.6018925 z M 5.2916667 2.6018925 L 5.2477417 2.6458175 L 5.2916667 2.6897425 L 5.3355917 2.6458175 L 5.2916667 2.6018925 z M 5.55625 2.6018925 L 5.5123251 2.6458175 L 5.55625 2.6897425 L 5.600175 2.6458175 L 5.55625 2.6018925 z M 5.8208334 2.6018925 L 5.7769084 2.6458175 L 5.8208334 2.6897425 L 5.8647583 2.6458175 L 5.8208334 2.6018925 z M 6.0854167 2.6018925 L 6.0414917 2.6458175 L 6.0854167 2.6897425 L 6.1293417 2.6458175 L 6.0854167 2.6018925 z M 6.35 2.6018925 L 6.3060751 2.6458175 L 6.35 2.6897425 L 6.393925 2.6458175 L 6.35 2.6018925 z M 6.6145834 2.6018925 L 6.5706584 2.6458175 L 6.6145834 2.6897425 L 6.6585083 2.6458175 L 6.6145834 2.6018925 z M 6.8791667 2.6018925 L 6.8352417 2.6458175 L 6.8791667 2.6897425 L 6.9230917 2.6458175 L 6.8791667 2.6018925 z M 7.14375 2.6018925 L 7.0998251 2.6458175 L 7.14375 2.6897425 L 7.187675 2.6458175 L 7.14375 2.6018925 z M 7.4083334 2.6018925 L 7.3644084 2.6458175 L 7.4083334 2.6897425 L 7.4083334 2.6018925 z M 0.52916668 2.8664759 L 0.52916668 2.9543258 L 0.57309165 2.9104008 L 0.52916668 2.8664759 z M 0.79375002 2.8664759 L 0.74982505 2.9104008 L 0.79375002 2.9543258 L 0.83767498 2.9104008 L 0.79375002 2.8664759 z M 1.0583334 2.8664759 L 1.0144084 2.9104008 L 1.0583334 2.9543258 L 1.1022583 2.9104008 L 1.0583334 2.8664759 z M 3.175 2.8664759 L 3.1310751 2.9104008 L 3.175 2.9543258 L 3.218925 2.9104008 L 3.175 2.8664759 z M 3.4395834 2.8664759 L 3.3956584 2.9104008 L 3.4395834 2.9543258 L 3.4835083 2.9104008 L 3.4395834 2.8664759 z M 3.7041667 2.8664759 L 3.6602417 2.9104008 L 3.7041667 2.9543258 L 3.7480917 2.9104008 L 3.7041667 2.8664759 z M 3.96875 2.8664759 L 3.9248251 2.9104008 L 3.96875 2.9543258 L 4.012675 2.9104008 L 3.96875 2.8664759 z M 4.2333334 2.8664759 L 4.1894084 2.9104008 L 4.2333334 2.9543258 L 4.2772583 2.9104008 L 4.2333334 2.8664759 z M 4.4979167 2.8664759 L 4.4539917 2.9104008 L 4.4979167 2.9543258 L 4.5418417 2.9104008 L 4.4979167 2.8664759 z M 4.7625 2.8664759 L 4.7185751 2.9104008 L 4.7625 2.9543258 L 4.806425 2.9104008 L 4.7625 2.8664759 z M 5.0270834 2.8664759 L 4.9831584 2.9104008 L 5.0270834 2.9543258 L 5.0710083 2.9104008 L 5.0270834 2.8664759 z M 5.2916667 2.8664759 L 5.2477417 2.9104008 L 5.2916667 2.9543258 L 5.3355917 2.9104008 L 5.2916667 2.8664759 z M 5.55625 2.8664759 L 5.5123251 2.9104008 L 5.55625 2.9543258 L 5.600175 2.9104008 L 5.55625 2.8664759 z M 5.8208334 2.8664759 L 5.7769084 2.9104008 L 5.8208334 2.9543258 L 5.8647583 2.9104008 L 5.8208334 2.8664759 z M 6.0854167 2.8664759 L 6.0414917 2.9104008 L 6.0854167 2.9543258 L 6.1293417 2.9104008 L 6.0854167 2.8664759 z M 6.35 2.8664759 L 6.3060751 2.9104008 L 6.35 2.9543258 L 6.393925 2.9104008 L 6.35 2.8664759 z M 6.6145834 2.8664759 L 6.5706584 2.9104008 L 6.6145834 2.9543258 L 6.6585083 2.9104008 L 6.6145834 2.8664759 z M 6.8791667 2.8664759 L 6.8352417 2.9104008 L 6.8791667 2.9543258 L 6.9230917 2.9104008 L 6.8791667 2.8664759 z M 7.14375 2.8664759 L 7.0998251 2.9104008 L 7.14375 2.9543258 L 7.187675 2.9104008 L 7.14375 2.8664759 z M 7.4083334 2.8664759 L 7.3644084 2.9104008 L 7.4083334 2.9543258 L 7.4083334 2.8664759 z M 1.2789917 2.9104008 L 1.3229167 2.9543258 L 1.3668417 2.9104008 L 1.2789917 2.9104008 z M 1.5435751 2.9104008 L 1.5875 2.9543258 L 1.631425 2.9104008 L 1.5435751 2.9104008 z M 1.8081584 2.9104008 L 1.8520834 2.9543258 L 1.8960083 2.9104008 L 1.8081584 2.9104008 z M 2.0727417 2.9104008 L 2.1166667 2.9543258 L 2.1605917 2.9104008 L 2.0727417 2.9104008 z M 2.3373251 2.9104008 L 2.38125 2.9543258 L 2.425175 2.9104008 L 2.3373251 2.9104008 z M 2.6019084 2.9104008 L 2.6458334 2.9543258 L 2.6897583 2.9104008 L 2.6019084 2.9104008 z M 2.8664917 2.9104008 L 2.9104167 2.9543258 L 2.9543417 2.9104008 L 2.8664917 2.9104008 z M 0.52916668 3.1310592 L 0.52916668 3.2189091 L 0.57309165 3.1749842 L 0.52916668 3.1310592 z M 0.79375002 3.1310592 L 0.74982505 3.1749842 L 0.79375002 3.2189091 L 0.83767498 3.1749842 L 0.79375002 3.1310592 z M 1.0583334 3.1310592 L 1.0144084 3.1749842 L 1.0583334 3.2189091 L 1.1022583 3.1749842 L 1.0583334 3.1310592 z M 1.8520834 3.1310592 L 1.8081584 3.1749842 L 1.8520834 3.2189091 L 1.8960083 3.1749842 L 1.8520834 3.1310592 z M 2.1166667 3.1310592 L 2.0727417 3.1749842 L 2.1166667 3.2189091 L 2.1605917 3.1749842 L 2.1166667 3.1310592 z M 2.38125 3.1310592 L 2.3373251 3.1749842 L 2.38125 3.2189091 L 2.425175 3.1749842 L 2.38125 3.1310592 z M 2.6458334 3.1310592 L 2.6019084 3.1749842 L 2.6458334 3.2189091 L 2.6897583 3.1749842 L 2.6458334 3.1310592 z M 2.9104167 3.1310592 L 2.8664917 3.1749842 L 2.9104167 3.2189091 L 2.9543417 3.1749842 L 2.9104167 3.1310592 z M 3.175 3.1310592 L 3.1310751 3.1749842 L 3.175 3.2189091 L 3.218925 3.1749842 L 3.175 3.1310592 z M 3.4395834 3.1310592 L 3.3956584 3.1749842 L 3.4395834 3.2189091 L 3.4835083 3.1749842 L 3.4395834 3.1310592 z M 3.7041667 3.1310592 L 3.6602417 3.1749842 L 3.7041667 3.2189091 L 3.7480917 3.1749842 L 3.7041667 3.1310592 z M 3.96875 3.1310592 L 3.9248251 3.1749842 L 3.96875 3.2189091 L 4.012675 3.1749842 L 3.96875 3.1310592 z M 4.2333334 3.1310592 L 4.1894084 3.1749842 L 4.2333334 3.2189091 L 4.2772583 3.1749842 L 4.2333334 3.1310592 z M 4.4979167 3.1310592 L 4.4539917 3.1749842 L 4.4979167 3.2189091 L 4.5418417 3.1749842 L 4.4979167 3.1310592 z M 4.7625 3.1310592 L 4.7185751 3.1749842 L 4.7625 3.2189091 L 4.806425 3.1749842 L 4.7625 3.1310592 z M 5.0270834 3.1310592 L 4.9831584 3.1749842 L 5.0270834 3.2189091 L 5.0710083 3.1749842 L 5.0270834 3.1310592 z M 5.2916667 3.1310592 L 5.2477417 3.1749842 L 5.2916667 3.2189091 L 5.3355917 3.1749842 L 5.2916667 3.1310592 z M 5.55625 3.1310592 L 5.5123251 3.1749842 L 5.55625 3.2189091 L 5.600175 3.1749842 L 5.55625 3.1310592 z M 5.8208334 3.1310592 L 5.7769084 3.1749842 L 5.8208334 3.2189091 L 5.8647583 3.1749842 L 5.8208334 3.1310592 z M 6.0854167 3.1310592 L 6.0414917 3.1749842 L 6.0854167 3.2189091 L 6.1293417 3.1749842 L 6.0854167 3.1310592 z M 6.35 3.1310592 L 6.3060751 3.1749842 L 6.35 3.2189091 L 6.393925 3.1749842 L 6.35 3.1310592 z M 6.6145834 3.1310592 L 6.5706584 3.1749842 L 6.6145834 3.2189091 L 6.6585083 3.1749842 L 6.6145834 3.1310592 z M 6.8791667 3.1310592 L 6.8352417 3.1749842 L 6.8791667 3.2189091 L 6.9230917 3.1749842 L 6.8791667 3.1310592 z M 7.14375 3.1310592 L 7.0998251 3.1749842 L 7.14375 3.2189091 L 7.187675 3.1749842 L 7.14375 3.1310592 z M 7.4083334 3.1310592 L 7.3644084 3.1749842 L 7.4083334 3.2189091 L 7.4083334 3.1310592 z M 0.52916668 3.3956425 L 0.52916668 3.4834925 L 0.57309165 3.4395675 L 0.52916668 3.3956425 z M 0.79375002 3.3956425 L 0.74982505 3.4395675 L 0.79375002 3.4834925 L 0.83767498 3.4395675 L 0.79375002 3.3956425 z M 1.0583334 3.3956425 L 1.0144084 3.4395675 L 1.0583334 3.4834925 L 1.1022583 3.4395675 L 1.0583334 3.3956425 z M 1.3229167 3.3956425 L 1.2789917 3.4395675 L 1.3229167 3.4834925 L 1.3229167 3.3956425 z M 2.1166667 3.3956425 L 2.0727417 3.4395675 L 2.1605917 3.4395675 L 2.1166667 3.3956425 z M 2.38125 3.3956425 L 2.3373251 3.4395675 L 2.425175 3.4395675 L 2.38125 3.3956425 z M 2.6458334 3.3956425 L 2.6019084 3.4395675 L 2.6897583 3.4395675 L 2.6458334 3.3956425 z M 2.9104167 3.3956425 L 2.8664917 3.4395675 L 2.9543417 3.4395675 L 2.9104167 3.3956425 z M 3.175 3.3956425 L 3.1310751 3.4395675 L 3.175 3.4834925 L 3.218925 3.4395675 L 3.175 3.3956425 z M 3.4395834 3.3956425 L 3.3956584 3.4395675 L 3.4395834 3.4834925 L 3.4835083 3.4395675 L 3.4395834 3.3956425 z M 3.7041667 3.3956425 L 3.6602417 3.4395675 L 3.7041667 3.4834925 L 3.7480917 3.4395675 L 3.7041667 3.3956425 z M 3.96875 3.3956425 L 3.9248251 3.4395675 L 3.96875 3.4834925 L 4.012675 3.4395675 L 3.96875 3.3956425 z M 4.2333334 3.3956425 L 4.1894084 3.4395675 L 4.2333334 3.4834925 L 4.2772583 3.4395675 L 4.2333334 3.3956425 z M 4.4979167 3.3956425 L 4.4539917 3.4395675 L 4.4979167 3.4834925 L 4.5418417 3.4395675 L 4.4979167 3.3956425 z M 4.7625 3.3956425 L 4.7185751 3.4395675 L 4.7625 3.4834925 L 4.806425 3.4395675 L 4.7625 3.3956425 z M 5.0270834 3.3956425 L 4.9831584 3.4395675 L 5.0270834 3.4834925 L 5.0710083 3.4395675 L 5.0270834 3.3956425 z M 5.2916667 3.3956425 L 5.2477417 3.4395675 L 5.2916667 3.4834925 L 5.3355917 3.4395675 L 5.2916667 3.3956425 z M 5.55625 3.3956425 L 5.5123251 3.4395675 L 5.55625 3.4834925 L 5.600175 3.4395675 L 5.55625 3.3956425 z M 5.8208334 3.3956425 L 5.7769084 3.4395675 L 5.8208334 3.4834925 L 5.8647583 3.4395675 L 5.8208334 3.3956425 z M 6.0854167 3.3956425 L 6.0414917 3.4395675 L 6.0854167 3.4834925 L 6.1293417 3.4395675 L 6.0854167 3.3956425 z M 6.35 3.3956425 L 6.3060751 3.4395675 L 6.35 3.4834925 L 6.393925 3.4395675 L 6.35 3.3956425 z M 6.6145834 3.3956425 L 6.5706584 3.4395675 L 6.6145834 3.4834925 L 6.6585083 3.4395675 L 6.6145834 3.3956425 z M 6.8791667 3.3956425 L 6.8352417 3.4395675 L 6.8791667 3.4834925 L 6.9230917 3.4395675 L 6.8791667 3.3956425 z M 7.14375 3.3956425 L 7.0998251 3.4395675 L 7.14375 3.4834925 L 7.187675 3.4395675 L 7.14375 3.3956425 z M 7.4083334 3.3956425 L 7.3644084 3.4395675 L 7.4083334 3.4834925 L 7.4083334 3.3956425 z M 0.52916668 3.6602259 L 0.52916668 3.7480758 L 0.57309165 3.7041508 L 0.52916668 3.6602259 z M 0.79375002 3.6602259 L 0.74982505 3.7041508 L 0.79375002 3.7480758 L 0.83767498 3.7041508 L 0.79375002 3.6602259 z M 1.0583334 3.6602259 L 1.0144084 3.7041508 L 1.0583334 3.7480758 L 1.1022583 3.7041508 L 1.0583334 3.6602259 z M 1.3229167 3.6602259 L 1.2789917 3.7041508 L 1.3229167 3.7480758 L 1.3668417 3.7041508 L 1.3229167 3.6602259 z M 3.175 3.6602259 L 3.175 3.7480758 L 3.218925 3.7041508 L 3.175 3.6602259 z M 3.4395834 3.6602259 L 3.3956584 3.7041508 L 3.4395834 3.7480758 L 3.4835083 3.7041508 L 3.4395834 3.6602259 z M 3.7041667 3.6602259 L 3.6602417 3.7041508 L 3.7041667 3.7480758 L 3.7480917 3.7041508 L 3.7041667 3.6602259 z M 3.96875 3.6602259 L 3.9248251 3.7041508 L 4.012675 3.7041508 L 3.96875 3.6602259 z M 4.2333334 3.6602259 L 4.1894084 3.7041508 L 4.2772583 3.7041508 L 4.2333334 3.6602259 z M 4.4979167 3.6602259 L 4.4539917 3.7041508 L 4.5418417 3.7041508 L 4.4979167 3.6602259 z M 4.7625 3.6602259 L 4.7185751 3.7041508 L 4.806425 3.7041508 L 4.7625 3.6602259 z M 5.0270834 3.6602259 L 4.9831584 3.7041508 L 5.0710083 3.7041508 L 5.0270834 3.6602259 z M 5.2916667 3.6602259 L 5.2477417 3.7041508 L 5.3355917 3.7041508 L 5.2916667 3.6602259 z M 5.55625 3.6602259 L 5.5123251 3.7041508 L 5.600175 3.7041508 L 5.55625 3.6602259 z M 5.8208334 3.6602259 L 5.7769084 3.7041508 L 5.8647583 3.7041508 L 5.8208334 3.6602259 z M 6.0854167 3.6602259 L 6.0414917 3.7041508 L 6.1293417 3.7041508 L 6.0854167 3.6602259 z M 6.35 3.6602259 L 6.3060751 3.7041508 L 6.393925 3.7041508 L 6.35 3.6602259 z M 6.6145834 3.6602259 L 6.5706584 3.7041508 L 6.6585083 3.7041508 L 6.6145834 3.6602259 z M 6.8791667 3.6602259 L 6.8352417 3.7041508 L 6.8791667 3.7480758 L 6.9230917 3.7041508 L 6.8791667 3.6602259 z M 7.14375 3.6602259 L 7.0998251 3.7041508 L 7.14375 3.7480758 L 7.187675 3.7041508 L 7.14375 3.6602259 z M 7.4083334 3.6602259 L 7.3644084 3.7041508 L 7.4083334 3.7480758 L 7.4083334 3.6602259 z M 1.5435751 3.7041508 L 1.5875 3.7480758 L 1.631425 3.7041508 L 1.5435751 3.7041508 z M 0.52916668 3.9248092 L 0.52916668 4.0126591 L 0.57309165 3.9687342 L 0.52916668 3.9248092 z M 0.79375002 3.9248092 L 0.74982505 3.9687342 L 0.79375002 4.0126591 L 0.83767498 3.9687342 L 0.79375002 3.9248092 z M 1.0583334 3.9248092 L 1.0144084 3.9687342 L 1.0583334 4.0126591 L 1.1022583 3.9687342 L 1.0583334 3.9248092 z M 1.3229167 3.9248092 L 1.2789917 3.9687342 L 1.3229167 4.0126591 L 1.3668417 3.9687342 L 1.3229167 3.9248092 z M 1.5875 3.9248092 L 1.5435751 3.9687342 L 1.5875 4.0126591 L 1.631425 3.9687342 L 1.5875 3.9248092 z M 1.8520834 3.9248092 L 1.8081584 3.9687342 L 1.8520834 4.0126591 L 1.8960083 3.9687342 L 1.8520834 3.9248092 z M 2.1166667 3.9248092 L 2.0727417 3.9687342 L 2.1166667 4.0126591 L 2.1605917 3.9687342 L 2.1166667 3.9248092 z M 2.38125 3.9248092 L 2.3373251 3.9687342 L 2.38125 4.0126591 L 2.425175 3.9687342 L 2.38125 3.9248092 z M 3.175 3.9248092 L 3.1310751 3.9687342 L 3.175 4.0126591 L 3.218925 3.9687342 L 3.175 3.9248092 z M 3.4395834 3.9248092 L 3.3956584 3.9687342 L 3.4395834 4.0126591 L 3.4835083 3.9687342 L 3.4395834 3.9248092 z M 3.7041667 3.9248092 L 3.6602417 3.9687342 L 3.7041667 4.0126591 L 3.7041667 3.9248092 z M 6.8791667 3.9248092 L 6.8791667 4.0126591 L 6.9230917 3.9687342 L 6.8791667 3.9248092 z M 7.14375 3.9248092 L 7.0998251 3.9687342 L 7.14375 4.0126591 L 7.187675 3.9687342 L 7.14375 3.9248092 z M 7.4083334 3.9248092 L 7.3644084 3.9687342 L 7.4083334 4.0126591 L 7.4083334 3.9248092 z M 2.6019084 3.9687342 L 2.6458334 4.0126591 L 2.6897583 3.9687342 L 2.6019084 3.9687342 z M 2.8664917 3.9687342 L 2.9104167 4.0126591 L 2.9543417 3.9687342 L 2.8664917 3.9687342 z M 0.52916668 4.1893925 L 0.52916668 4.2772425 L 0.57309165 4.2333175 L 0.52916668 4.1893925 z M 0.79375002 4.1893925 L 0.74982505 4.2333175 L 0.79375002 4.2772425 L 0.83767498 4.2333175 L 0.79375002 4.1893925 z M 1.0583334 4.1893925 L 1.0144084 4.2333175 L 1.0583334 4.2772425 L 1.1022583 4.2333175 L 1.0583334 4.1893925 z M 1.3229167 4.1893925 L 1.2789917 4.2333175 L 1.3229167 4.2772425 L 1.3668417 4.2333175 L 1.3229167 4.1893925 z M 1.5875 4.1893925 L 1.5435751 4.2333175 L 1.5875 4.2772425 L 1.631425 4.2333175 L 1.5875 4.1893925 z M 1.8520834 4.1893925 L 1.8081584 4.2333175 L 1.8520834 4.2772425 L 1.8960083 4.2333175 L 1.8520834 4.1893925 z M 2.1166667 4.1893925 L 2.0727417 4.2333175 L 2.1166667 4.2772425 L 2.1605917 4.2333175 L 2.1166667 4.1893925 z M 2.38125 4.1893925 L 2.3373251 4.2333175 L 2.38125 4.2772425 L 2.425175 4.2333175 L 2.38125 4.1893925 z M 2.6458334 4.1893925 L 2.6019084 4.2333175 L 2.6458334 4.2772425 L 2.6897583 4.2333175 L 2.6458334 4.1893925 z M 2.9104167 4.1893925 L 2.8664917 4.2333175 L 2.9104167 4.2772425 L 2.9543417 4.2333175 L 2.9104167 4.1893925 z M 3.175 4.1893925 L 3.1310751 4.2333175 L 3.175 4.2772425 L 3.218925 4.2333175 L 3.175 4.1893925 z M 3.4395834 4.1893925 L 3.3956584 4.2333175 L 3.4395834 4.2772425 L 3.4835083 4.2333175 L 3.4395834 4.1893925 z M 3.7041667 4.1893925 L 3.6602417 4.2333175 L 3.7041667 4.2772425 L 3.7480917 4.2333175 L 3.7041667 4.1893925 z M 6.8791667 4.1893925 L 6.8352417 4.2333175 L 6.8791667 4.2772425 L 6.9230917 4.2333175 L 6.8791667 4.1893925 z M 7.14375 4.1893925 L 7.0998251 4.2333175 L 7.14375 4.2772425 L 7.187675 4.2333175 L 7.14375 4.1893925 z M 7.4083334 4.1893925 L 7.3644084 4.2333175 L 7.4083334 4.2772425 L 7.4083334 4.1893925 z M 3.9248251 4.2333175 L 3.96875 4.2772425 L 4.012675 4.2333175 L 3.9248251 4.2333175 z M 4.1894084 4.2333175 L 4.2333334 4.2772425 L 4.2772583 4.2333175 L 4.1894084 4.2333175 z M 4.4539917 4.2333175 L 4.4979167 4.2772425 L 4.5418417 4.2333175 L 4.4539917 4.2333175 z M 4.7185751 4.2333175 L 4.7625 4.2772425 L 4.806425 4.2333175 L 4.7185751 4.2333175 z M 4.9831584 4.2333175 L 5.0270834 4.2772425 L 5.0710083 4.2333175 L 4.9831584 4.2333175 z M 5.2477417 4.2333175 L 5.2916667 4.2772425 L 5.3355917 4.2333175 L 5.2477417 4.2333175 z M 5.5123251 4.2333175 L 5.55625 4.2772425 L 5.600175 4.2333175 L 5.5123251 4.2333175 z M 5.7769084 4.2333175 L 5.8208334 4.2772425 L 5.8647583 4.2333175 L 5.7769084 4.2333175 z M 6.0414917 4.2333175 L 6.0854167 4.2772425 L 6.1293417 4.2333175 L 6.0414917 4.2333175 z M 6.3060751 4.2333175 L 6.35 4.2772425 L 6.393925 4.2333175 L 6.3060751 4.2333175 z M 6.5706584 4.2333175 L 6.6145834 4.2772425 L 6.6585083 4.2333175 L 6.5706584 4.2333175 z M 0.52916668 4.4539759 L 0.52916668 4.5418258 L 0.57309165 4.4979008 L 0.52916668 4.4539759 z M 0.79375002 4.4539759 L 0.74982505 4.4979008 L 0.79375002 4.5418258 L 0.83767498 4.4979008 L 0.79375002 4.4539759 z M 1.0583334 4.4539759 L 1.0144084 4.4979008 L 1.0583334 4.5418258 L 1.1022583 4.4979008 L 1.0583334 4.4539759 z M 1.3229167 4.4539759 L 1.2789917 4.4979008 L 1.3229167 4.5418258 L 1.3668417 4.4979008 L 1.3229167 4.4539759 z M 1.5875 4.4539759 L 1.5435751 4.4979008 L 1.5875 4.5418258 L 1.631425 4.4979008 L 1.5875 4.4539759 z M 1.8520834 4.4539759 L 1.8081584 4.4979008 L 1.8520834 4.5418258 L 1.8960083 4.4979008 L 1.8520834 4.4539759 z M 2.1166667 4.4539759 L 2.0727417 4.4979008 L 2.1166667 4.5418258 L 2.1605917 4.4979008 L 2.1166667 4.4539759 z M 2.38125 4.4539759 L 2.3373251 4.4979008 L 2.38125 4.5418258 L 2.425175 4.4979008 L 2.38125 4.4539759 z M 2.6458334 4.4539759 L 2.6019084 4.4979008 L 2.6458334 4.5418258 L 2.6897583 4.4979008 L 2.6458334 4.4539759 z M 2.9104167 4.4539759 L 2.8664917 4.4979008 L 2.9104167 4.5418258 L 2.9543417 4.4979008 L 2.9104167 4.4539759 z M 3.175 4.4539759 L 3.1310751 4.4979008 L 3.175 4.5418258 L 3.218925 4.4979008 L 3.175 4.4539759 z M 3.4395834 4.4539759 L 3.3956584 4.4979008 L 3.4395834 4.5418258 L 3.4835083 4.4979008 L 3.4395834 4.4539759 z M 3.7041667 4.4539759 L 3.6602417 4.4979008 L 3.7041667 4.5418258 L 3.7480917 4.4979008 L 3.7041667 4.4539759 z M 3.96875 4.4539759 L 3.9248251 4.4979008 L 3.96875 4.5418258 L 4.012675 4.4979008 L 3.96875 4.4539759 z M 4.2333334 4.4539759 L 4.1894084 4.4979008 L 4.2333334 4.5418258 L 4.2772583 4.4979008 L 4.2333334 4.4539759 z M 4.4979167 4.4539759 L 4.4539917 4.4979008 L 4.4979167 4.5418258 L 4.5418417 4.4979008 L 4.4979167 4.4539759 z M 4.7625 4.4539759 L 4.7185751 4.4979008 L 4.7625 4.5418258 L 4.806425 4.4979008 L 4.7625 4.4539759 z M 5.0270834 4.4539759 L 4.9831584 4.4979008 L 5.0270834 4.5418258 L 5.0710083 4.4979008 L 5.0270834 4.4539759 z M 5.2916667 4.4539759 L 5.2477417 4.4979008 L 5.2916667 4.5418258 L 5.3355917 4.4979008 L 5.2916667 4.4539759 z M 5.55625 4.4539759 L 5.5123251 4.4979008 L 5.55625 4.5418258 L 5.600175 4.4979008 L 5.55625 4.4539759 z M 5.8208334 4.4539759 L 5.7769084 4.4979008 L 5.8208334 4.5418258 L 5.8647583 4.4979008 L 5.8208334 4.4539759 z M 6.0854167 4.4539759 L 6.0414917 4.4979008 L 6.0854167 4.5418258 L 6.1293417 4.4979008 L 6.0854167 4.4539759 z M 6.35 4.4539759 L 6.3060751 4.4979008 L 6.35 4.5418258 L 6.393925 4.4979008 L 6.35 4.4539759 z M 6.6145834 4.4539759 L 6.5706584 4.4979008 L 6.6145834 4.5418258 L 6.6585083 4.4979008 L 6.6145834 4.4539759 z M 6.8791667 4.4539759 L 6.8352417 4.4979008 L 6.8791667 4.5418258 L 6.9230917 4.4979008 L 6.8791667 4.4539759 z M 7.14375 4.4539759 L 7.0998251 4.4979008 L 7.14375 4.5418258 L 7.187675 4.4979008 L 7.14375 4.4539759 z M 7.4083334 4.4539759 L 7.3644084 4.4979008 L 7.4083334 4.5418258 L 7.4083334 4.4539759 z M 0.52916668 4.7185592 L 0.52916668 4.8064091 L 0.57309165 4.7624842 L 0.52916668 4.7185592 z M 0.79375002 4.7185592 L 0.74982505 4.7624842 L 0.79375002 4.8064091 L 0.83767498 4.7624842 L 0.79375002 4.7185592 z M 1.0583334 4.7185592 L 1.0144084 4.7624842 L 1.0583334 4.8064091 L 1.1022583 4.7624842 L 1.0583334 4.7185592 z M 1.3229167 4.7185592 L 1.2789917 4.7624842 L 1.3229167 4.8064091 L 1.3668417 4.7624842 L 1.3229167 4.7185592 z M 1.5875 4.7185592 L 1.5435751 4.7624842 L 1.5875 4.8064091 L 1.631425 4.7624842 L 1.5875 4.7185592 z M 1.8520834 4.7185592 L 1.8081584 4.7624842 L 1.8520834 4.8064091 L 1.8960083 4.7624842 L 1.8520834 4.7185592 z M 2.1166667 4.7185592 L 2.0727417 4.7624842 L 2.1166667 4.8064091 L 2.1605917 4.7624842 L 2.1166667 4.7185592 z M 2.38125 4.7185592 L 2.3373251 4.7624842 L 2.38125 4.8064091 L 2.425175 4.7624842 L 2.38125 4.7185592 z M 2.6458334 4.7185592 L 2.6019084 4.7624842 L 2.6458334 4.8064091 L 2.6897583 4.7624842 L 2.6458334 4.7185592 z M 2.9104167 4.7185592 L 2.8664917 4.7624842 L 2.9104167 4.8064091 L 2.9543417 4.7624842 L 2.9104167 4.7185592 z M 3.175 4.7185592 L 3.1310751 4.7624842 L 3.175 4.8064091 L 3.218925 4.7624842 L 3.175 4.7185592 z M 3.4395834 4.7185592 L 3.3956584 4.7624842 L 3.4395834 4.8064091 L 3.4835083 4.7624842 L 3.4395834 4.7185592 z M 3.7041667 4.7185592 L 3.6602417 4.7624842 L 3.7041667 4.8064091 L 3.7480917 4.7624842 L 3.7041667 4.7185592 z M 3.96875 4.7185592 L 3.9248251 4.7624842 L 3.96875 4.8064091 L 4.012675 4.7624842 L 3.96875 4.7185592 z M 4.2333334 4.7185592 L 4.1894084 4.7624842 L 4.2333334 4.8064091 L 4.2772583 4.7624842 L 4.2333334 4.7185592 z M 4.4979167 4.7185592 L 4.4539917 4.7624842 L 4.4979167 4.8064091 L 4.5418417 4.7624842 L 4.4979167 4.7185592 z M 4.7625 4.7185592 L 4.7185751 4.7624842 L 4.7625 4.8064091 L 4.806425 4.7624842 L 4.7625 4.7185592 z M 5.0270834 4.7185592 L 4.9831584 4.7624842 L 5.0270834 4.8064091 L 5.0710083 4.7624842 L 5.0270834 4.7185592 z M 5.2916667 4.7185592 L 5.2477417 4.7624842 L 5.2916667 4.8064091 L 5.3355917 4.7624842 L 5.2916667 4.7185592 z M 5.55625 4.7185592 L 5.5123251 4.7624842 L 5.55625 4.8064091 L 5.600175 4.7624842 L 5.55625 4.7185592 z M 5.8208334 4.7185592 L 5.7769084 4.7624842 L 5.8208334 4.8064091 L 5.8647583 4.7624842 L 5.8208334 4.7185592 z M 6.0854167 4.7185592 L 6.0414917 4.7624842 L 6.0854167 4.8064091 L 6.1293417 4.7624842 L 6.0854167 4.7185592 z M 6.35 4.7185592 L 6.3060751 4.7624842 L 6.35 4.8064091 L 6.393925 4.7624842 L 6.35 4.7185592 z M 6.6145834 4.7185592 L 6.5706584 4.7624842 L 6.6145834 4.8064091 L 6.6585083 4.7624842 L 6.6145834 4.7185592 z M 6.8791667 4.7185592 L 6.8352417 4.7624842 L 6.8791667 4.8064091 L 6.9230917 4.7624842 L 6.8791667 4.7185592 z M 7.14375 4.7185592 L 7.0998251 4.7624842 L 7.14375 4.8064091 L 7.187675 4.7624842 L 7.14375 4.7185592 z M 7.4083334 4.7185592 L 7.3644084 4.7624842 L 7.4083334 4.8064091 L 7.4083334 4.7185592 z M 0.52916668 4.9831425 L 0.52916668 5.0709925 L 0.57309165 5.0270675 L 0.52916668 4.9831425 z M 0.79375002 4.9831425 L 0.74982505 5.0270675 L 0.79375002 5.0709925 L 0.83767498 5.0270675 L 0.79375002 4.9831425 z M 1.0583334 4.9831425 L 1.0144084 5.0270675 L 1.0583334 5.0709925 L 1.1022583 5.0270675 L 1.0583334 4.9831425 z M 1.3229167 4.9831425 L 1.2789917 5.0270675 L 1.3229167 5.0709925 L 1.3668417 5.0270675 L 1.3229167 4.9831425 z M 1.5875 4.9831425 L 1.5435751 5.0270675 L 1.5875 5.0709925 L 1.631425 5.0270675 L 1.5875 4.9831425 z M 1.8520834 4.9831425 L 1.8081584 5.0270675 L 1.8520834 5.0709925 L 1.8960083 5.0270675 L 1.8520834 4.9831425 z M 2.1166667 4.9831425 L 2.0727417 5.0270675 L 2.1166667 5.0709925 L 2.1605917 5.0270675 L 2.1166667 4.9831425 z M 2.38125 4.9831425 L 2.3373251 5.0270675 L 2.38125 5.0709925 L 2.425175 5.0270675 L 2.38125 4.9831425 z M 2.6458334 4.9831425 L 2.6019084 5.0270675 L 2.6458334 5.0709925 L 2.6897583 5.0270675 L 2.6458334 4.9831425 z M 2.9104167 4.9831425 L 2.8664917 5.0270675 L 2.9104167 5.0709925 L 2.9543417 5.0270675 L 2.9104167 4.9831425 z M 3.175 4.9831425 L 3.1310751 5.0270675 L 3.175 5.0709925 L 3.218925 5.0270675 L 3.175 4.9831425 z M 3.4395834 4.9831425 L 3.3956584 5.0270675 L 3.4395834 5.0709925 L 3.4835083 5.0270675 L 3.4395834 4.9831425 z M 3.7041667 4.9831425 L 3.6602417 5.0270675 L 3.7041667 5.0709925 L 3.7480917 5.0270675 L 3.7041667 4.9831425 z M 3.96875 4.9831425 L 3.9248251 5.0270675 L 3.96875 5.0709925 L 4.012675 5.0270675 L 3.96875 4.9831425 z M 4.2333334 4.9831425 L 4.1894084 5.0270675 L 4.2333334 5.0709925 L 4.2772583 5.0270675 L 4.2333334 4.9831425 z M 4.4979167 4.9831425 L 4.4539917 5.0270675 L 4.4979167 5.0709925 L 4.5418417 5.0270675 L 4.4979167 4.9831425 z M 4.7625 4.9831425 L 4.7185751 5.0270675 L 4.7625 5.0709925 L 4.806425 5.0270675 L 4.7625 4.9831425 z M 5.0270834 4.9831425 L 4.9831584 5.0270675 L 5.0270834 5.0709925 L 5.0710083 5.0270675 L 5.0270834 4.9831425 z M 5.2916667 4.9831425 L 5.2477417 5.0270675 L 5.2916667 5.0709925 L 5.3355917 5.0270675 L 5.2916667 4.9831425 z M 5.55625 4.9831425 L 5.5123251 5.0270675 L 5.55625 5.0709925 L 5.600175 5.0270675 L 5.55625 4.9831425 z M 5.8208334 4.9831425 L 5.7769084 5.0270675 L 5.8208334 5.0709925 L 5.8647583 5.0270675 L 5.8208334 4.9831425 z M 6.0854167 4.9831425 L 6.0414917 5.0270675 L 6.0854167 5.0709925 L 6.1293417 5.0270675 L 6.0854167 4.9831425 z M 6.35 4.9831425 L 6.3060751 5.0270675 L 6.35 5.0709925 L 6.393925 5.0270675 L 6.35 4.9831425 z M 6.6145834 4.9831425 L 6.5706584 5.0270675 L 6.6145834 5.0709925 L 6.6585083 5.0270675 L 6.6145834 4.9831425 z M 6.8791667 4.9831425 L 6.8352417 5.0270675 L 6.8791667 5.0709925 L 6.9230917 5.0270675 L 6.8791667 4.9831425 z M 7.14375 4.9831425 L 7.0998251 5.0270675 L 7.14375 5.0709925 L 7.187675 5.0270675 L 7.14375 4.9831425 z M 7.4083334 4.9831425 L 7.3644084 5.0270675 L 7.4083334 5.0709925 L 7.4083334 4.9831425 z M 0.52916668 5.2477259 L 0.48524171 5.2916508 L 0.57309165 5.2916508 L 0.52916668 5.2477259 z M 0.79375002 5.2477259 L 0.74982505 5.2916508 L 0.83767498 5.2916508 L 0.79375002 5.2477259 z M 1.0583334 5.2477259 L 1.0144084 5.2916508 L 1.1022583 5.2916508 L 1.0583334 5.2477259 z M 1.3229167 5.2477259 L 1.2789917 5.2916508 L 1.3668417 5.2916508 L 1.3229167 5.2477259 z M 1.5875 5.2477259 L 1.5435751 5.2916508 L 1.631425 5.2916508 L 1.5875 5.2477259 z M 1.8520834 5.2477259 L 1.8081584 5.2916508 L 1.8960083 5.2916508 L 1.8520834 5.2477259 z M 2.1166667 5.2477259 L 2.0727417 5.2916508 L 2.1605917 5.2916508 L 2.1166667 5.2477259 z M 2.38125 5.2477259 L 2.3373251 5.2916508 L 2.425175 5.2916508 L 2.38125 5.2477259 z M 2.6458334 5.2477259 L 2.6019084 5.2916508 L 2.6897583 5.2916508 L 2.6458334 5.2477259 z M 2.9104167 5.2477259 L 2.8664917 5.2916508 L 2.9543417 5.2916508 L 2.9104167 5.2477259 z M 3.175 5.2477259 L 3.1310751 5.2916508 L 3.218925 5.2916508 L 3.175 5.2477259 z M 3.4395834 5.2477259 L 3.3956584 5.2916508 L 3.4835083 5.2916508 L 3.4395834 5.2477259 z M 3.7041667 5.2477259 L 3.6602417 5.2916508 L 3.7480917 5.2916508 L 3.7041667 5.2477259 z M 3.96875 5.2477259 L 3.9248251 5.2916508 L 4.012675 5.2916508 L 3.96875 5.2477259 z M 4.2333334 5.2477259 L 4.1894084 5.2916508 L 4.2772583 5.2916508 L 4.2333334 5.2477259 z M 4.4979167 5.2477259 L 4.4539917 5.2916508 L 4.5418417 5.2916508 L 4.4979167 5.2477259 z M 4.7625 5.2477259 L 4.7185751 5.2916508 L 4.806425 5.2916508 L 4.7625 5.2477259 z M 5.0270834 5.2477259 L 4.9831584 5.2916508 L 5.0710083 5.2916508 L 5.0270834 5.2477259 z M 5.2916667 5.2477259 L 5.2477417 5.2916508 L 5.3355917 5.2916508 L 5.2916667 5.2477259 z M 5.55625 5.2477259 L 5.5123251 5.2916508 L 5.600175 5.2916508 L 5.55625 5.2477259 z M 5.8208334 5.2477259 L 5.7769084 5.2916508 L 5.8647583 5.2916508 L 5.8208334 5.2477259 z M 6.0854167 5.2477259 L 6.0414917 5.2916508 L 6.1293417 5.2916508 L 6.0854167 5.2477259 z M 6.35 5.2477259 L 6.3060751 5.2916508 L 6.393925 5.2916508 L 6.35 5.2477259 z M 6.6145834 5.2477259 L 6.5706584 5.2916508 L 6.6585083 5.2916508 L 6.6145834 5.2477259 z M 6.8791667 5.2477259 L 6.8352417 5.2916508 L 6.9230917 5.2916508 L 6.8791667 5.2477259 z M 7.14375 5.2477259 L 7.0998251 5.2916508 L 7.187675 5.2916508 L 7.14375 5.2477259 z M 7.4083334 5.2477259 L 7.3644084 5.2916508 L 7.4083334 5.2916508 L 7.4083334 5.2477259 z M 6.8791667 5.8208175 L 6.8791667 5.8652592 L 6.9230917 5.8208175 L 6.8791667 5.8208175 z M 7.0998251 5.8208175 L 7.14375 5.8652592 L 7.187675 5.8208175 L 7.0998251 5.8208175 z M 7.3644084 5.8208175 L 7.4083334 5.8652592 L 7.4083334 5.8208175 L 7.3644084 5.8208175 z M 6.8791667 6.0414759 L 6.8791667 6.1298426 L 6.9230917 6.0854008 L 6.8791667 6.0414759 z M 7.14375 6.0414759 L 7.0998251 6.0854008 L 7.14375 6.1298426 L 7.187675 6.0854008 L 7.14375 6.0414759 z M 7.4083334 6.0414759 L 7.3644084 6.0854008 L 7.4083334 6.1298426 L 7.4083334 6.0414759 z M 6.8791667 6.3060592 L 6.8791667 6.3499842 L 6.9230917 6.3499842 L 6.8791667 6.3060592 z M 7.14375 6.3060592 L 7.0998251 6.3499842 L 7.187675 6.3499842 L 7.14375 6.3060592 z M 7.4083334 6.3060592 L 7.3644084 6.3499842 L 7.4083334 6.3499842 L 7.4083334 6.3060592 z " />
  </g>
  <metadata
     id="metadata2667">
    <rdf:RDF>
      <cc:Work
         rdf:about="">
        <cc:license
           rdf:resource="http://scripts.sil.org/OFL" />
      </cc:Work>
      <cc:License
         rdf:about="http://scripts.sil.org/OFL">
        <cc:permits
           rdf:resource="http://scripts.sil.org/pub/OFL/Reproduction" />
        <cc:permits
           rdf:resource="http://scripts.sil.org/pub/OFL/Distribution" />
        <cc:permits
           rdf:resource="http://scripts.sil.org/pub/OFL/Embedding" />
        <cc:permits
           rdf:resource="http://scripts.sil.org/pub/OFL/DerivativeWorks" />
        <cc:requires
           rdf:resource="http://scripts.sil.org/pub/OFL/Notice" />
        <cc:requires
           rdf:resource="http://scripts.sil.org/pub/OFL/Attribution" />
        <cc:requires
           rdf:resource="http://scripts.sil.org/pub/OFL/ShareAlike" />
        <cc:requires
           rdf:resource="http://scripts.sil.org/pub/OFL/DerivativeRenaming" />
        <cc:requires
           rdf:resource="http://scripts.sil.org/pub/OFL/BundlingWhenSelling" />
      </cc:License>
    </rdf:RDF>
  </metadata>
  <path
     id="text1195"
     style="font-size:6.35px;font-family:'system six';-inkscape-font-specification:'system six';text-align:start;text-anchor:start;opacity:1;fill:#000000;stroke-width:0.529167;paint-order:stroke fill markers"
     d="M 0.79375,0.79375 V 6.0854167 H 1.3229167 V 0.79375 Z m 2.1166667,1.3229167 c -0.749652,0 -1.0583334,0.5291674 -1.0583334,1.3229166 C 1.8520833,4.2333325 2.3812508,4.7625 3.175,4.7625 H 3.96875 V 4.2333333 H 3.175 c -0.5291661,0 -0.79375,-0.132292 -0.79375,-0.5291666 h 1.5875 c 0,-1.0583323 -0.3086813,-1.5875 -1.0583333,-1.5875 z m 0,0.5291666 c 0.3968746,0 0.5291666,0.1322921 0.5291666,0.5291667 H 2.38125 c 0,-0.3968746 0.1322921,-0.5291667 0.5291667,-0.5291667 z m 1.5875,1.8520834 v 0.5291666 h 3.175 V 4.4979167 Z M 0.79375,6.6145833 V 7.14375 H 7.6729167 V 6.6145833 Z"
     inkscape:label="text"
     sodipodi:insensitive="true" />
</svg>
